-4.5	3.0
-3.5	26.0
-2.5	398.0
-1.5	1521.0
-0.5	7673.0
0.5	10757.0
1.5	21029.0
2.5	17432.0
3.5	17240.0
4.5	10628.0
5.5	6909.0
6.5	3604.0
7.5	1632.0
8.5	716.0
9.5	267.0
10.5	109.0
11.5	41.0
12.5	11.0
13.5	3.0
