0	8.0
1	8.0
2	12.0
3	14.0
4	16.0
5	12.0
6	14.0
7	14.0
8	16.0
9	18.0
10	10.0
11	12.0
12	6.0
13	8.0
14	12.0
15	10.0
16	18.0
17	14.0
18	8.0
19	10.0
20	8.0
21	14.0
22	10.0
23	12.0
24	12.0
25	10.0
26	6.0
27	14.0
28	12.0
29	10.0
30	10.0
31	12.0
32	8.0
33	8.0
34	18.0
35	8.0
36	16.0
37	16.0
38	10.0
39	18.0
40	12.0
41	6.0
42	12.0
43	14.0
44	8.0
45	4.0
46	14.0
47	12.0
48	12.0
49	10.0
50	8.0
51	16.0
52	4.0
53	8.0
54	14.0
55	4.0
56	8.0
57	20.0
58	10.0
59	16.0
60	14.0
61	8.0
62	10.0
63	20.0
64	6.0
65	16.0
66	18.0
67	10.0
68	8.0
69	14.0
70	8.0
71	18.0
72	8.0
73	10.0
74	14.0
75	14.0
76	12.0
77	20.0
78	8.0
79	8.0
80	8.0
81	18.0
82	10.0
83	8.0
84	20.0
85	12.0
86	8.0
87	12.0
88	12.0
89	14.0
90	10.0
91	22.0
92	18.0
93	14.0
94	10.0
95	14.0
96	12.0
97	16.0
98	8.0
99	14.0
100	8.0
101	10.0
102	4.0
103	14.0
104	10.0
105	14.0
106	6.0
107	16.0
108	26.0
109	10.0
110	14.0
111	8.0
112	8.0
113	14.0
114	14.0
115	14.0
116	10.0
117	8.0
118	8.0
119	8.0
120	16.0
121	10.0
122	10.0
123	10.0
124	10.0
125	10.0
126	18.0
127	14.0
128	12.0
129	8.0
130	6.0
131	10.0
132	8.0
133	10.0
134	16.0
135	20.0
136	8.0
137	8.0
138	4.0
139	14.0
140	10.0
141	16.0
142	14.0
143	10.0
144	10.0
145	4.0
146	10.0
147	10.0
148	4.0
149	14.0
150	10.0
151	16.0
152	6.0
153	10.0
154	10.0
155	16.0
156	12.0
157	16.0
158	18.0
159	8.0
160	16.0
161	20.0
162	14.0
163	10.0
164	16.0
165	14.0
166	14.0
167	12.0
168	14.0
169	14.0
170	12.0
171	10.0
172	12.0
173	8.0
174	20.0
175	18.0
176	16.0
177	16.0
178	16.0
179	16.0
180	20.0
181	16.0
182	12.0
183	18.0
184	12.0
185	10.0
186	12.0
187	14.0
188	18.0
189	12.0
190	12.0
191	18.0
192	14.0
193	10.0
194	18.0
195	12.0
196	8.0
197	6.0
198	12.0
199	20.0
200	18.0
201	14.0
202	8.0
203	14.0
204	8.0
205	20.0
206	12.0
207	16.0
208	8.0
209	8.0
210	8.0
211	8.0
212	8.0
213	2.0
214	18.0
215	10.0
216	14.0
217	22.0
218	16.0
219	12.0
220	6.0
221	16.0
222	18.0
223	18.0
224	10.0
225	18.0
226	8.0
227	10.0
228	10.0
229	18.0
230	24.0
231	16.0
232	14.0
233	16.0
234	16.0
235	12.0
236	14.0
237	16.0
238	12.0
239	18.0
240	18.0
241	18.0
242	6.0
243	6.0
244	12.0
245	14.0
246	14.0
247	14.0
248	16.0
249	8.0
250	8.0
251	10.0
252	14.0
253	6.0
254	18.0
255	6.0
256	18.0
257	14.0
258	16.0
259	14.0
260	16.0
261	26.0
262	16.0
263	20.0
264	12.0
265	12.0
266	14.0
267	14.0
268	14.0
269	12.0
270	6.0
271	8.0
272	16.0
273	6.0
274	6.0
275	10.0
276	20.0
277	14.0
278	14.0
279	4.0
280	10.0
281	12.0
282	8.0
283	10.0
284	18.0
285	12.0
286	12.0
287	8.0
288	8.0
289	10.0
290	10.0
291	12.0
292	12.0
293	14.0
294	12.0
295	8.0
296	6.0
297	10.0
298	14.0
299	10.0
300	14.0
301	2.0
302	16.0
303	18.0
304	10.0
305	20.0
306	8.0
307	18.0
308	10.0
309	10.0
310	14.0
311	14.0
312	14.0
313	12.0
314	12.0
315	14.0
316	16.0
317	22.0
318	14.0
319	8.0
320	20.0
321	16.0
322	8.0
323	12.0
324	8.0
325	8.0
326	10.0
327	8.0
328	12.0
329	8.0
330	18.0
331	12.0
332	8.0
333	16.0
334	14.0
335	8.0
336	14.0
337	14.0
338	6.0
339	16.0
340	10.0
341	18.0
342	12.0
343	10.0
344	12.0
345	14.0
346	10.0
347	10.0
348	10.0
349	18.0
350	12.0
351	14.0
352	10.0
353	20.0
354	20.0
355	6.0
356	14.0
357	12.0
358	6.0
359	6.0
360	14.0
361	16.0
362	10.0
363	10.0
364	14.0
365	14.0
366	12.0
367	12.0
368	12.0
369	10.0
370	4.0
371	12.0
372	8.0
373	14.0
374	12.0
375	10.0
376	18.0
377	14.0
378	16.0
379	14.0
380	8.0
381	18.0
382	10.0
383	16.0
384	16.0
385	20.0
386	16.0
387	18.0
388	12.0
389	6.0
390	18.0
391	24.0
392	10.0
393	8.0
394	16.0
395	12.0
396	16.0
397	10.0
398	14.0
399	10.0
400	26.0
401	18.0
402	14.0
403	12.0
404	12.0
405	20.0
406	10.0
407	12.0
408	12.0
409	12.0
410	12.0
411	10.0
412	16.0
413	14.0
414	18.0
415	14.0
416	6.0
417	16.0
418	12.0
419	6.0
420	12.0
421	6.0
422	14.0
423	10.0
424	10.0
425	12.0
426	10.0
427	6.0
428	6.0
429	8.0
430	22.0
431	14.0
432	14.0
433	10.0
434	10.0
435	12.0
436	14.0
437	10.0
438	12.0
439	6.0
440	14.0
441	6.0
442	12.0
443	14.0
444	12.0
445	6.0
446	18.0
447	12.0
448	12.0
449	18.0
450	6.0
451	16.0
452	16.0
453	16.0
454	10.0
455	6.0
456	20.0
457	4.0
458	6.0
459	12.0
460	10.0
461	10.0
462	8.0
463	10.0
464	20.0
465	20.0
466	16.0
467	10.0
468	10.0
469	20.0
470	10.0
471	12.0
472	8.0
473	10.0
474	10.0
475	16.0
476	10.0
477	20.0
478	8.0
479	16.0
480	16.0
481	8.0
482	14.0
483	12.0
484	10.0
485	10.0
486	10.0
487	10.0
488	16.0
489	10.0
490	20.0
491	18.0
492	6.0
493	4.0
494	8.0
495	16.0
496	16.0
497	14.0
498	8.0
499	12.0
500	46.0
501	10.0
502	8.0
503	10.0
504	18.0
505	12.0
506	16.0
507	12.0
508	22.0
509	14.0
510	14.0
511	12.0
512	12.0
513	14.0
514	16.0
515	6.0
516	6.0
517	8.0
518	22.0
519	18.0
520	12.0
521	14.0
522	18.0
523	8.0
524	16.0
525	12.0
526	8.0
527	22.0
528	10.0
529	10.0
530	14.0
531	12.0
532	16.0
533	14.0
534	14.0
535	12.0
536	18.0
537	22.0
538	8.0
539	8.0
540	6.0
541	18.0
542	16.0
543	8.0
544	16.0
545	18.0
546	10.0
547	12.0
548	8.0
549	10.0
550	10.0
551	18.0
552	16.0
553	18.0
554	8.0
555	8.0
556	12.0
557	8.0
558	8.0
559	10.0
560	14.0
561	20.0
562	20.0
563	16.0
564	14.0
565	18.0
566	14.0
567	16.0
568	12.0
569	12.0
570	14.0
571	18.0
572	8.0
573	10.0
574	18.0
575	8.0
576	18.0
577	18.0
578	12.0
579	16.0
580	12.0
581	12.0
582	16.0
583	14.0
584	18.0
585	16.0
586	12.0
587	12.0
588	8.0
589	14.0
590	18.0
591	14.0
592	8.0
593	8.0
594	10.0
595	6.0
596	6.0
597	4.0
598	14.0
599	10.0
600	12.0
601	10.0
602	12.0
603	10.0
604	12.0
605	16.0
606	12.0
607	14.0
608	8.0
609	20.0
610	8.0
611	12.0
612	16.0
613	8.0
614	14.0
615	18.0
616	8.0
617	14.0
618	10.0
619	14.0
620	12.0
621	12.0
622	6.0
623	6.0
624	10.0
625	10.0
626	6.0
627	16.0
628	4.0
629	10.0
630	20.0
631	6.0
632	16.0
633	14.0
634	14.0
635	8.0
636	16.0
637	14.0
638	14.0
639	10.0
640	12.0
641	10.0
642	12.0
643	12.0
644	16.0
645	18.0
646	20.0
647	14.0
648	10.0
649	12.0
650	8.0
651	10.0
652	18.0
653	22.0
654	20.0
655	12.0
656	10.0
657	6.0
658	16.0
659	4.0
660	6.0
661	8.0
662	14.0
663	10.0
664	14.0
665	14.0
666	10.0
667	10.0
668	6.0
669	18.0
670	8.0
671	8.0
672	8.0
673	16.0
674	10.0
675	6.0
676	10.0
677	14.0
678	10.0
679	12.0
680	8.0
681	8.0
682	12.0
683	14.0
684	14.0
685	6.0
686	4.0
687	14.0
688	12.0
689	8.0
690	12.0
691	10.0
692	8.0
693	22.0
694	14.0
695	6.0
696	14.0
697	10.0
698	8.0
699	12.0
700	10.0
701	14.0
702	8.0
703	12.0
704	6.0
705	6.0
706	8.0
707	10.0
708	12.0
709	8.0
710	4.0
711	12.0
712	18.0
713	8.0
714	12.0
715	8.0
716	14.0
717	4.0
718	8.0
719	10.0
720	14.0
721	8.0
722	10.0
723	22.0
724	10.0
725	4.0
726	14.0
727	14.0
728	12.0
729	14.0
730	8.0
731	8.0
732	12.0
733	8.0
734	16.0
735	12.0
736	12.0
737	6.0
738	8.0
739	8.0
740	12.0
741	6.0
742	12.0
743	14.0
744	16.0
745	12.0
746	6.0
747	12.0
748	16.0
749	16.0
750	18.0
751	18.0
752	10.0
753	10.0
754	12.0
755	16.0
756	10.0
757	14.0
758	18.0
759	8.0
760	18.0
761	12.0
762	14.0
763	16.0
764	8.0
765	14.0
766	4.0
767	12.0
768	10.0
769	16.0
770	12.0
771	6.0
772	12.0
773	14.0
774	0.0
775	14.0
776	16.0
777	8.0
778	12.0
779	10.0
780	10.0
781	12.0
782	22.0
783	10.0
784	16.0
785	16.0
786	8.0
787	12.0
788	4.0
789	10.0
790	12.0
791	12.0
792	14.0
793	10.0
794	8.0
795	8.0
796	8.0
797	8.0
798	6.0
799	10.0
800	20.0
801	12.0
802	20.0
803	12.0
804	10.0
805	14.0
806	4.0
807	18.0
808	16.0
809	10.0
810	18.0
811	6.0
812	14.0
813	10.0
814	6.0
815	4.0
816	12.0
817	14.0
818	12.0
819	12.0
820	10.0
821	6.0
822	6.0
823	8.0
824	14.0
825	16.0
826	12.0
827	12.0
828	10.0
829	12.0
830	10.0
831	12.0
832	16.0
833	12.0
834	4.0
835	14.0
836	14.0
837	18.0
838	4.0
839	16.0
840	10.0
841	16.0
842	10.0
843	16.0
844	16.0
845	14.0
846	8.0
847	12.0
848	10.0
849	6.0
850	12.0
851	12.0
852	16.0
853	18.0
854	12.0
855	14.0
856	12.0
857	12.0
858	12.0
859	20.0
860	8.0
861	20.0
862	20.0
863	10.0
864	14.0
865	6.0
866	2.0
867	20.0
868	12.0
869	12.0
870	12.0
871	10.0
872	20.0
873	10.0
874	12.0
875	12.0
876	8.0
877	10.0
878	16.0
879	18.0
880	16.0
881	6.0
882	12.0
883	12.0
884	12.0
885	14.0
886	10.0
887	12.0
888	4.0
889	10.0
890	8.0
891	10.0
892	10.0
893	8.0
894	12.0
895	18.0
896	8.0
897	10.0
898	12.0
899	14.0
900	6.0
901	6.0
902	14.0
903	10.0
904	14.0
905	8.0
906	14.0
907	8.0
908	16.0
909	10.0
910	8.0
911	14.0
912	8.0
913	6.0
914	8.0
915	16.0
916	10.0
917	14.0
918	12.0
919	14.0
920	12.0
921	8.0
922	8.0
923	6.0
924	8.0
925	10.0
926	12.0
927	12.0
928	4.0
929	22.0
930	12.0
931	12.0
932	22.0
933	8.0
934	16.0
935	6.0
936	8.0
937	14.0
938	8.0
939	10.0
940	20.0
941	18.0
942	4.0
943	16.0
944	10.0
945	14.0
946	10.0
947	16.0
948	10.0
949	10.0
950	14.0
951	14.0
952	14.0
953	12.0
954	8.0
955	14.0
956	10.0
957	10.0
958	8.0
959	14.0
960	12.0
961	4.0
962	14.0
963	12.0
964	16.0
965	16.0
966	10.0
967	16.0
968	14.0
969	22.0
970	4.0
971	14.0
972	16.0
973	14.0
974	16.0
975	10.0
976	14.0
977	10.0
978	16.0
979	18.0
980	12.0
981	6.0
982	14.0
983	16.0
984	16.0
985	16.0
986	10.0
987	14.0
988	14.0
989	10.0
990	8.0
991	14.0
992	6.0
993	10.0
994	18.0
995	18.0
996	14.0
997	12.0
998	8.0
999	14.0
