totalProb(x) = (1.0/3.0) + (2.0/3.0)*exp(-x)
probStayOn(x) = (1.0/3.0)/(totalProb(x))
ls(x) = sqrt(1.0/(abs(log(probStayOn(x)))))
V = 19683
L = 200
D = 0.5
fit(x) = A*V/(D*ls(x)) + B*L*ls(x)/D
fit fit(x) "500SeedsDNA200.dat" u 1:2 via A,B
plot "500SeedsDNA200.dat" u 1:2, fit(x)
