%!PS-Adobe-2.0 EPSF-2.0
%%Title: affinityProfileExport.eps
%%Creator: gnuplot 4.4 patchlevel 3
%%CreationDate: Fri Mar 21 06:53:41 2014
%%DocumentFonts: (atend)
%%BoundingBox: 50 50 475 390
%%EndComments
%%BeginProlog
/gnudict 256 dict def
gnudict begin
%
% The following true/false flags may be edited by hand if desired.
% The unit line width and grayscale image gamma correction may also be changed.
%
/Color true def
/Blacktext false def
/Solid false def
/Dashlength 1 def
/Landscape false def
/Level1 false def
/Rounded false def
/ClipToBoundingBox false def
/TransparentPatterns false def
/gnulinewidth 5.000 def
/userlinewidth gnulinewidth def
/Gamma 1.0 def
%
/vshift -53 def
/dl1 {
  10.0 Dashlength mul mul
  Rounded { currentlinewidth 0.75 mul sub dup 0 le { pop 0.01 } if } if
} def
/dl2 {
  10.0 Dashlength mul mul
  Rounded { currentlinewidth 0.75 mul add } if
} def
/hpt_ 31.5 def
/vpt_ 31.5 def
/hpt hpt_ def
/vpt vpt_ def
Level1 {} {
/SDict 10 dict def
systemdict /pdfmark known not {
  userdict /pdfmark systemdict /cleartomark get put
} if
SDict begin [
  /Title (affinityProfileExport.eps)
  /Subject (gnuplot plot)
  /Creator (gnuplot 4.4 patchlevel 3)
  /Author (casper)
%  /Producer (gnuplot)
%  /Keywords ()
  /CreationDate (Fri Mar 21 06:53:41 2014)
  /DOCINFO pdfmark
end
} ifelse
/doclip {
  ClipToBoundingBox {
    newpath 50 50 moveto 475 50 lineto 475 390 lineto 50 390 lineto closepath
    clip
  } if
} def
%
% Gnuplot Prolog Version 4.4 (August 2010)
%
%/SuppressPDFMark true def
%
/M {moveto} bind def
/L {lineto} bind def
/R {rmoveto} bind def
/V {rlineto} bind def
/N {newpath moveto} bind def
/Z {closepath} bind def
/C {setrgbcolor} bind def
/f {rlineto fill} bind def
/g {setgray} bind def
/Gshow {show} def   % May be redefined later in the file to support UTF-8
/vpt2 vpt 2 mul def
/hpt2 hpt 2 mul def
/Lshow {currentpoint stroke M 0 vshift R 
	Blacktext {gsave 0 setgray show grestore} {show} ifelse} def
/Rshow {currentpoint stroke M dup stringwidth pop neg vshift R
	Blacktext {gsave 0 setgray show grestore} {show} ifelse} def
/Cshow {currentpoint stroke M dup stringwidth pop -2 div vshift R 
	Blacktext {gsave 0 setgray show grestore} {show} ifelse} def
/UP {dup vpt_ mul /vpt exch def hpt_ mul /hpt exch def
  /hpt2 hpt 2 mul def /vpt2 vpt 2 mul def} def
/DL {Color {setrgbcolor Solid {pop []} if 0 setdash}
 {pop pop pop 0 setgray Solid {pop []} if 0 setdash} ifelse} def
/BL {stroke userlinewidth 2 mul setlinewidth
	Rounded {1 setlinejoin 1 setlinecap} if} def
/AL {stroke userlinewidth 2 div setlinewidth
	Rounded {1 setlinejoin 1 setlinecap} if} def
/UL {dup gnulinewidth mul /userlinewidth exch def
	dup 1 lt {pop 1} if 10 mul /udl exch def} def
/PL {stroke userlinewidth setlinewidth
	Rounded {1 setlinejoin 1 setlinecap} if} def
3.8 setmiterlimit
% Default Line colors
/LCw {1 1 1} def
/LCb {0 0 0} def
/LCa {0 0 0} def
/LC0 {1 0 0} def
/LC1 {0 1 0} def
/LC2 {0 0 1} def
/LC3 {1 0 1} def
/LC4 {0 1 1} def
/LC5 {1 1 0} def
/LC6 {0 0 0} def
/LC7 {1 0.3 0} def
/LC8 {0.5 0.5 0.5} def
% Default Line Types
/LTw {PL [] 1 setgray} def
/LTb {BL [] LCb DL} def
/LTa {AL [1 udl mul 2 udl mul] 0 setdash LCa setrgbcolor} def
/LT0 {PL [] LC0 DL} def
/LT1 {PL [4 dl1 2 dl2] LC1 DL} def
/LT2 {PL [2 dl1 3 dl2] LC2 DL} def
/LT3 {PL [1 dl1 1.5 dl2] LC3 DL} def
/LT4 {PL [6 dl1 2 dl2 1 dl1 2 dl2] LC4 DL} def
/LT5 {PL [3 dl1 3 dl2 1 dl1 3 dl2] LC5 DL} def
/LT6 {PL [2 dl1 2 dl2 2 dl1 6 dl2] LC6 DL} def
/LT7 {PL [1 dl1 2 dl2 6 dl1 2 dl2 1 dl1 2 dl2] LC7 DL} def
/LT8 {PL [2 dl1 2 dl2 2 dl1 2 dl2 2 dl1 2 dl2 2 dl1 4 dl2] LC8 DL} def
/Pnt {stroke [] 0 setdash gsave 1 setlinecap M 0 0 V stroke grestore} def
/Dia {stroke [] 0 setdash 2 copy vpt add M
  hpt neg vpt neg V hpt vpt neg V
  hpt vpt V hpt neg vpt V closepath stroke
  Pnt} def
/Pls {stroke [] 0 setdash vpt sub M 0 vpt2 V
  currentpoint stroke M
  hpt neg vpt neg R hpt2 0 V stroke
 } def
/Box {stroke [] 0 setdash 2 copy exch hpt sub exch vpt add M
  0 vpt2 neg V hpt2 0 V 0 vpt2 V
  hpt2 neg 0 V closepath stroke
  Pnt} def
/Crs {stroke [] 0 setdash exch hpt sub exch vpt add M
  hpt2 vpt2 neg V currentpoint stroke M
  hpt2 neg 0 R hpt2 vpt2 V stroke} def
/TriU {stroke [] 0 setdash 2 copy vpt 1.12 mul add M
  hpt neg vpt -1.62 mul V
  hpt 2 mul 0 V
  hpt neg vpt 1.62 mul V closepath stroke
  Pnt} def
/Star {2 copy Pls Crs} def
/BoxF {stroke [] 0 setdash exch hpt sub exch vpt add M
  0 vpt2 neg V hpt2 0 V 0 vpt2 V
  hpt2 neg 0 V closepath fill} def
/TriUF {stroke [] 0 setdash vpt 1.12 mul add M
  hpt neg vpt -1.62 mul V
  hpt 2 mul 0 V
  hpt neg vpt 1.62 mul V closepath fill} def
/TriD {stroke [] 0 setdash 2 copy vpt 1.12 mul sub M
  hpt neg vpt 1.62 mul V
  hpt 2 mul 0 V
  hpt neg vpt -1.62 mul V closepath stroke
  Pnt} def
/TriDF {stroke [] 0 setdash vpt 1.12 mul sub M
  hpt neg vpt 1.62 mul V
  hpt 2 mul 0 V
  hpt neg vpt -1.62 mul V closepath fill} def
/DiaF {stroke [] 0 setdash vpt add M
  hpt neg vpt neg V hpt vpt neg V
  hpt vpt V hpt neg vpt V closepath fill} def
/Pent {stroke [] 0 setdash 2 copy gsave
  translate 0 hpt M 4 {72 rotate 0 hpt L} repeat
  closepath stroke grestore Pnt} def
/PentF {stroke [] 0 setdash gsave
  translate 0 hpt M 4 {72 rotate 0 hpt L} repeat
  closepath fill grestore} def
/Circle {stroke [] 0 setdash 2 copy
  hpt 0 360 arc stroke Pnt} def
/CircleF {stroke [] 0 setdash hpt 0 360 arc fill} def
/C0 {BL [] 0 setdash 2 copy moveto vpt 90 450 arc} bind def
/C1 {BL [] 0 setdash 2 copy moveto
	2 copy vpt 0 90 arc closepath fill
	vpt 0 360 arc closepath} bind def
/C2 {BL [] 0 setdash 2 copy moveto
	2 copy vpt 90 180 arc closepath fill
	vpt 0 360 arc closepath} bind def
/C3 {BL [] 0 setdash 2 copy moveto
	2 copy vpt 0 180 arc closepath fill
	vpt 0 360 arc closepath} bind def
/C4 {BL [] 0 setdash 2 copy moveto
	2 copy vpt 180 270 arc closepath fill
	vpt 0 360 arc closepath} bind def
/C5 {BL [] 0 setdash 2 copy moveto
	2 copy vpt 0 90 arc
	2 copy moveto
	2 copy vpt 180 270 arc closepath fill
	vpt 0 360 arc} bind def
/C6 {BL [] 0 setdash 2 copy moveto
	2 copy vpt 90 270 arc closepath fill
	vpt 0 360 arc closepath} bind def
/C7 {BL [] 0 setdash 2 copy moveto
	2 copy vpt 0 270 arc closepath fill
	vpt 0 360 arc closepath} bind def
/C8 {BL [] 0 setdash 2 copy moveto
	2 copy vpt 270 360 arc closepath fill
	vpt 0 360 arc closepath} bind def
/C9 {BL [] 0 setdash 2 copy moveto
	2 copy vpt 270 450 arc closepath fill
	vpt 0 360 arc closepath} bind def
/C10 {BL [] 0 setdash 2 copy 2 copy moveto vpt 270 360 arc closepath fill
	2 copy moveto
	2 copy vpt 90 180 arc closepath fill
	vpt 0 360 arc closepath} bind def
/C11 {BL [] 0 setdash 2 copy moveto
	2 copy vpt 0 180 arc closepath fill
	2 copy moveto
	2 copy vpt 270 360 arc closepath fill
	vpt 0 360 arc closepath} bind def
/C12 {BL [] 0 setdash 2 copy moveto
	2 copy vpt 180 360 arc closepath fill
	vpt 0 360 arc closepath} bind def
/C13 {BL [] 0 setdash 2 copy moveto
	2 copy vpt 0 90 arc closepath fill
	2 copy moveto
	2 copy vpt 180 360 arc closepath fill
	vpt 0 360 arc closepath} bind def
/C14 {BL [] 0 setdash 2 copy moveto
	2 copy vpt 90 360 arc closepath fill
	vpt 0 360 arc} bind def
/C15 {BL [] 0 setdash 2 copy vpt 0 360 arc closepath fill
	vpt 0 360 arc closepath} bind def
/Rec {newpath 4 2 roll moveto 1 index 0 rlineto 0 exch rlineto
	neg 0 rlineto closepath} bind def
/Square {dup Rec} bind def
/Bsquare {vpt sub exch vpt sub exch vpt2 Square} bind def
/S0 {BL [] 0 setdash 2 copy moveto 0 vpt rlineto BL Bsquare} bind def
/S1 {BL [] 0 setdash 2 copy vpt Square fill Bsquare} bind def
/S2 {BL [] 0 setdash 2 copy exch vpt sub exch vpt Square fill Bsquare} bind def
/S3 {BL [] 0 setdash 2 copy exch vpt sub exch vpt2 vpt Rec fill Bsquare} bind def
/S4 {BL [] 0 setdash 2 copy exch vpt sub exch vpt sub vpt Square fill Bsquare} bind def
/S5 {BL [] 0 setdash 2 copy 2 copy vpt Square fill
	exch vpt sub exch vpt sub vpt Square fill Bsquare} bind def
/S6 {BL [] 0 setdash 2 copy exch vpt sub exch vpt sub vpt vpt2 Rec fill Bsquare} bind def
/S7 {BL [] 0 setdash 2 copy exch vpt sub exch vpt sub vpt vpt2 Rec fill
	2 copy vpt Square fill Bsquare} bind def
/S8 {BL [] 0 setdash 2 copy vpt sub vpt Square fill Bsquare} bind def
/S9 {BL [] 0 setdash 2 copy vpt sub vpt vpt2 Rec fill Bsquare} bind def
/S10 {BL [] 0 setdash 2 copy vpt sub vpt Square fill 2 copy exch vpt sub exch vpt Square fill
	Bsquare} bind def
/S11 {BL [] 0 setdash 2 copy vpt sub vpt Square fill 2 copy exch vpt sub exch vpt2 vpt Rec fill
	Bsquare} bind def
/S12 {BL [] 0 setdash 2 copy exch vpt sub exch vpt sub vpt2 vpt Rec fill Bsquare} bind def
/S13 {BL [] 0 setdash 2 copy exch vpt sub exch vpt sub vpt2 vpt Rec fill
	2 copy vpt Square fill Bsquare} bind def
/S14 {BL [] 0 setdash 2 copy exch vpt sub exch vpt sub vpt2 vpt Rec fill
	2 copy exch vpt sub exch vpt Square fill Bsquare} bind def
/S15 {BL [] 0 setdash 2 copy Bsquare fill Bsquare} bind def
/D0 {gsave translate 45 rotate 0 0 S0 stroke grestore} bind def
/D1 {gsave translate 45 rotate 0 0 S1 stroke grestore} bind def
/D2 {gsave translate 45 rotate 0 0 S2 stroke grestore} bind def
/D3 {gsave translate 45 rotate 0 0 S3 stroke grestore} bind def
/D4 {gsave translate 45 rotate 0 0 S4 stroke grestore} bind def
/D5 {gsave translate 45 rotate 0 0 S5 stroke grestore} bind def
/D6 {gsave translate 45 rotate 0 0 S6 stroke grestore} bind def
/D7 {gsave translate 45 rotate 0 0 S7 stroke grestore} bind def
/D8 {gsave translate 45 rotate 0 0 S8 stroke grestore} bind def
/D9 {gsave translate 45 rotate 0 0 S9 stroke grestore} bind def
/D10 {gsave translate 45 rotate 0 0 S10 stroke grestore} bind def
/D11 {gsave translate 45 rotate 0 0 S11 stroke grestore} bind def
/D12 {gsave translate 45 rotate 0 0 S12 stroke grestore} bind def
/D13 {gsave translate 45 rotate 0 0 S13 stroke grestore} bind def
/D14 {gsave translate 45 rotate 0 0 S14 stroke grestore} bind def
/D15 {gsave translate 45 rotate 0 0 S15 stroke grestore} bind def
/DiaE {stroke [] 0 setdash vpt add M
  hpt neg vpt neg V hpt vpt neg V
  hpt vpt V hpt neg vpt V closepath stroke} def
/BoxE {stroke [] 0 setdash exch hpt sub exch vpt add M
  0 vpt2 neg V hpt2 0 V 0 vpt2 V
  hpt2 neg 0 V closepath stroke} def
/TriUE {stroke [] 0 setdash vpt 1.12 mul add M
  hpt neg vpt -1.62 mul V
  hpt 2 mul 0 V
  hpt neg vpt 1.62 mul V closepath stroke} def
/TriDE {stroke [] 0 setdash vpt 1.12 mul sub M
  hpt neg vpt 1.62 mul V
  hpt 2 mul 0 V
  hpt neg vpt -1.62 mul V closepath stroke} def
/PentE {stroke [] 0 setdash gsave
  translate 0 hpt M 4 {72 rotate 0 hpt L} repeat
  closepath stroke grestore} def
/CircE {stroke [] 0 setdash 
  hpt 0 360 arc stroke} def
/Opaque {gsave closepath 1 setgray fill grestore 0 setgray closepath} def
/DiaW {stroke [] 0 setdash vpt add M
  hpt neg vpt neg V hpt vpt neg V
  hpt vpt V hpt neg vpt V Opaque stroke} def
/BoxW {stroke [] 0 setdash exch hpt sub exch vpt add M
  0 vpt2 neg V hpt2 0 V 0 vpt2 V
  hpt2 neg 0 V Opaque stroke} def
/TriUW {stroke [] 0 setdash vpt 1.12 mul add M
  hpt neg vpt -1.62 mul V
  hpt 2 mul 0 V
  hpt neg vpt 1.62 mul V Opaque stroke} def
/TriDW {stroke [] 0 setdash vpt 1.12 mul sub M
  hpt neg vpt 1.62 mul V
  hpt 2 mul 0 V
  hpt neg vpt -1.62 mul V Opaque stroke} def
/PentW {stroke [] 0 setdash gsave
  translate 0 hpt M 4 {72 rotate 0 hpt L} repeat
  Opaque stroke grestore} def
/CircW {stroke [] 0 setdash 
  hpt 0 360 arc Opaque stroke} def
/BoxFill {gsave Rec 1 setgray fill grestore} def
/Density {
  /Fillden exch def
  currentrgbcolor
  /ColB exch def /ColG exch def /ColR exch def
  /ColR ColR Fillden mul Fillden sub 1 add def
  /ColG ColG Fillden mul Fillden sub 1 add def
  /ColB ColB Fillden mul Fillden sub 1 add def
  ColR ColG ColB setrgbcolor} def
/BoxColFill {gsave Rec PolyFill} def
/PolyFill {gsave Density fill grestore grestore} def
/h {rlineto rlineto rlineto gsave closepath fill grestore} bind def
%
% PostScript Level 1 Pattern Fill routine for rectangles
% Usage: x y w h s a XX PatternFill
%	x,y = lower left corner of box to be filled
%	w,h = width and height of box
%	  a = angle in degrees between lines and x-axis
%	 XX = 0/1 for no/yes cross-hatch
%
/PatternFill {gsave /PFa [ 9 2 roll ] def
  PFa 0 get PFa 2 get 2 div add PFa 1 get PFa 3 get 2 div add translate
  PFa 2 get -2 div PFa 3 get -2 div PFa 2 get PFa 3 get Rec
  gsave 1 setgray fill grestore clip
  currentlinewidth 0.5 mul setlinewidth
  /PFs PFa 2 get dup mul PFa 3 get dup mul add sqrt def
  0 0 M PFa 5 get rotate PFs -2 div dup translate
  0 1 PFs PFa 4 get div 1 add floor cvi
	{PFa 4 get mul 0 M 0 PFs V} for
  0 PFa 6 get ne {
	0 1 PFs PFa 4 get div 1 add floor cvi
	{PFa 4 get mul 0 2 1 roll M PFs 0 V} for
 } if
  stroke grestore} def
%
/languagelevel where
 {pop languagelevel} {1} ifelse
 2 lt
	{/InterpretLevel1 true def}
	{/InterpretLevel1 Level1 def}
 ifelse
%
% PostScript level 2 pattern fill definitions
%
/Level2PatternFill {
/Tile8x8 {/PaintType 2 /PatternType 1 /TilingType 1 /BBox [0 0 8 8] /XStep 8 /YStep 8}
	bind def
/KeepColor {currentrgbcolor [/Pattern /DeviceRGB] setcolorspace} bind def
<< Tile8x8
 /PaintProc {0.5 setlinewidth pop 0 0 M 8 8 L 0 8 M 8 0 L stroke} 
>> matrix makepattern
/Pat1 exch def
<< Tile8x8
 /PaintProc {0.5 setlinewidth pop 0 0 M 8 8 L 0 8 M 8 0 L stroke
	0 4 M 4 8 L 8 4 L 4 0 L 0 4 L stroke}
>> matrix makepattern
/Pat2 exch def
<< Tile8x8
 /PaintProc {0.5 setlinewidth pop 0 0 M 0 8 L
	8 8 L 8 0 L 0 0 L fill}
>> matrix makepattern
/Pat3 exch def
<< Tile8x8
 /PaintProc {0.5 setlinewidth pop -4 8 M 8 -4 L
	0 12 M 12 0 L stroke}
>> matrix makepattern
/Pat4 exch def
<< Tile8x8
 /PaintProc {0.5 setlinewidth pop -4 0 M 8 12 L
	0 -4 M 12 8 L stroke}
>> matrix makepattern
/Pat5 exch def
<< Tile8x8
 /PaintProc {0.5 setlinewidth pop -2 8 M 4 -4 L
	0 12 M 8 -4 L 4 12 M 10 0 L stroke}
>> matrix makepattern
/Pat6 exch def
<< Tile8x8
 /PaintProc {0.5 setlinewidth pop -2 0 M 4 12 L
	0 -4 M 8 12 L 4 -4 M 10 8 L stroke}
>> matrix makepattern
/Pat7 exch def
<< Tile8x8
 /PaintProc {0.5 setlinewidth pop 8 -2 M -4 4 L
	12 0 M -4 8 L 12 4 M 0 10 L stroke}
>> matrix makepattern
/Pat8 exch def
<< Tile8x8
 /PaintProc {0.5 setlinewidth pop 0 -2 M 12 4 L
	-4 0 M 12 8 L -4 4 M 8 10 L stroke}
>> matrix makepattern
/Pat9 exch def
/Pattern1 {PatternBgnd KeepColor Pat1 setpattern} bind def
/Pattern2 {PatternBgnd KeepColor Pat2 setpattern} bind def
/Pattern3 {PatternBgnd KeepColor Pat3 setpattern} bind def
/Pattern4 {PatternBgnd KeepColor Landscape {Pat5} {Pat4} ifelse setpattern} bind def
/Pattern5 {PatternBgnd KeepColor Landscape {Pat4} {Pat5} ifelse setpattern} bind def
/Pattern6 {PatternBgnd KeepColor Landscape {Pat9} {Pat6} ifelse setpattern} bind def
/Pattern7 {PatternBgnd KeepColor Landscape {Pat8} {Pat7} ifelse setpattern} bind def
} def
%
%
%End of PostScript Level 2 code
%
/PatternBgnd {
  TransparentPatterns {} {gsave 1 setgray fill grestore} ifelse
} def
%
% Substitute for Level 2 pattern fill codes with
% grayscale if Level 2 support is not selected.
%
/Level1PatternFill {
/Pattern1 {0.250 Density} bind def
/Pattern2 {0.500 Density} bind def
/Pattern3 {0.750 Density} bind def
/Pattern4 {0.125 Density} bind def
/Pattern5 {0.375 Density} bind def
/Pattern6 {0.625 Density} bind def
/Pattern7 {0.875 Density} bind def
} def
%
% Now test for support of Level 2 code
%
Level1 {Level1PatternFill} {Level2PatternFill} ifelse
%
/Symbol-Oblique /Symbol findfont [1 0 .167 1 0 0] makefont
dup length dict begin {1 index /FID eq {pop pop} {def} ifelse} forall
currentdict end definefont pop
/MFshow {
   { dup 5 get 3 ge
     { 5 get 3 eq {gsave} {grestore} ifelse }
     {dup dup 0 get findfont exch 1 get scalefont setfont
     [ currentpoint ] exch dup 2 get 0 exch R dup 5 get 2 ne {dup dup 6
     get exch 4 get {Gshow} {stringwidth pop 0 R} ifelse }if dup 5 get 0 eq
     {dup 3 get {2 get neg 0 exch R pop} {pop aload pop M} ifelse} {dup 5
     get 1 eq {dup 2 get exch dup 3 get exch 6 get stringwidth pop -2 div
     dup 0 R} {dup 6 get stringwidth pop -2 div 0 R 6 get
     show 2 index {aload pop M neg 3 -1 roll neg R pop pop} {pop pop pop
     pop aload pop M} ifelse }ifelse }ifelse }
     ifelse }
   forall} def
/Gswidth {dup type /stringtype eq {stringwidth} {pop (n) stringwidth} ifelse} def
/MFwidth {0 exch { dup 5 get 3 ge { 5 get 3 eq { 0 } { pop } ifelse }
 {dup 3 get{dup dup 0 get findfont exch 1 get scalefont setfont
     6 get Gswidth pop add} {pop} ifelse} ifelse} forall} def
/MLshow { currentpoint stroke M
  0 exch R
  Blacktext {gsave 0 setgray MFshow grestore} {MFshow} ifelse } bind def
/MRshow { currentpoint stroke M
  exch dup MFwidth neg 3 -1 roll R
  Blacktext {gsave 0 setgray MFshow grestore} {MFshow} ifelse } bind def
/MCshow { currentpoint stroke M
  exch dup MFwidth -2 div 3 -1 roll R
  Blacktext {gsave 0 setgray MFshow grestore} {MFshow} ifelse } bind def
/XYsave    { [( ) 1 2 true false 3 ()] } bind def
/XYrestore { [( ) 1 2 true false 4 ()] } bind def
end
%%EndProlog
gnudict begin
gsave
doclip
50 50 translate
0.050 0.050 scale
0 setgray
newpath
(Helvetica) findfont 160 scalefont setfont
1.000 UL
LTb
688 5719 M
63 0 V
7462 0 R
-63 0 V
stroke
592 5719 M
[ [(Helvetica) 160.0 0.0 true true 0 (50)]
] -53.3 MRshow
1.000 UL
LTb
688 6321 M
63 0 V
7462 0 R
-63 0 V
stroke
592 6321 M
[ [(Helvetica) 160.0 0.0 true true 0 (55)]
] -53.3 MRshow
1.000 UL
LTb
688 3913 M
63 0 V
7462 0 R
-63 0 V
stroke
592 3913 M
[ [(Helvetica) 160.0 0.0 true true 0 ( 0)]
] -53.3 MRshow
1.000 UL
LTb
688 4515 M
63 0 V
7462 0 R
-63 0 V
stroke
592 4515 M
[ [(Helvetica) 160.0 0.0 true true 0 ( 5)]
] -53.3 MRshow
1.000 UL
LTb
688 5117 M
63 0 V
7462 0 R
-63 0 V
stroke
592 5117 M
[ [(Helvetica) 160.0 0.0 true true 0 ( 10)]
] -53.3 MRshow
1.000 UL
LTb
688 3913 M
0 63 V
0 2345 R
0 -63 V
stroke
688 3753 M
[ [(Helvetica) 160.0 0.0 true true 0 ( 0)]
] -53.3 MCshow
1.000 UL
LTb
1441 3913 M
0 63 V
0 2345 R
0 -63 V
stroke
1441 3753 M
[ [(Helvetica) 160.0 0.0 true true 0 ( 100)]
] -53.3 MCshow
1.000 UL
LTb
2193 3913 M
0 63 V
0 2345 R
0 -63 V
stroke
2193 3753 M
[ [(Helvetica) 160.0 0.0 true true 0 ( 200)]
] -53.3 MCshow
1.000 UL
LTb
2946 3913 M
0 63 V
0 2345 R
0 -63 V
stroke
2946 3753 M
[ [(Helvetica) 160.0 0.0 true true 0 ( 300)]
] -53.3 MCshow
1.000 UL
LTb
3698 3913 M
0 63 V
0 2345 R
0 -63 V
stroke
3698 3753 M
[ [(Helvetica) 160.0 0.0 true true 0 ( 400)]
] -53.3 MCshow
1.000 UL
LTb
4451 3913 M
0 63 V
0 2345 R
0 -63 V
stroke
4451 3753 M
[ [(Helvetica) 160.0 0.0 true true 0 ( 500)]
] -53.3 MCshow
1.000 UL
LTb
5203 3913 M
0 63 V
0 2345 R
0 -63 V
stroke
5203 3753 M
[ [(Helvetica) 160.0 0.0 true true 0 ( 600)]
] -53.3 MCshow
1.000 UL
LTb
5956 3913 M
0 63 V
0 2345 R
0 -63 V
stroke
5956 3753 M
[ [(Helvetica) 160.0 0.0 true true 0 ( 700)]
] -53.3 MCshow
1.000 UL
LTb
6708 3913 M
0 63 V
0 2345 R
0 -63 V
stroke
6708 3753 M
[ [(Helvetica) 160.0 0.0 true true 0 ( 800)]
] -53.3 MCshow
1.000 UL
LTb
7461 3913 M
0 63 V
0 2345 R
0 -63 V
stroke
7461 3753 M
[ [(Helvetica) 160.0 0.0 true true 0 ( 900)]
] -53.3 MCshow
1.000 UL
LTb
8213 3913 M
0 63 V
0 2345 R
0 -63 V
stroke
8213 3753 M
[ [(Helvetica) 160.0 0.0 true true 0 ( 1000)]
] -53.3 MCshow
1.000 UL
LTb
1.000 UL
LTb
688 6321 N
0 -2408 V
7525 0 V
0 2408 V
-7525 0 V
Z stroke
LCb setrgbcolor
128 5117 M
currentpoint gsave translate -270 rotate 0 0 moveto
[ [(Helvetica) 180.0 0.0 true true 0 (Affinity)]
] -60.0 MCshow
grestore
LTb
LCb setrgbcolor
4450 3513 M
[ [(Helvetica) 180.0 0.0 true true 0 (DNA position)]
] -60.0 MCshow
LTb
4450 6561 M
[ [(Helvetica) 160.0 0.0 true true 0 (A)]
] -53.3 MCshow
1.000 UP
1.000 UL
LTb
% Begin plot #1
2.100 UL
LT0
LC0 setrgbcolor
LCb setrgbcolor
7544 6145 M
[ [(Symbol) 160.0 0.0 true true 0 (e)]
[(Helvetica) 128.0 -48.0 true true 0 (ns)]
[(Helvetica) 160.0 0.0 true true 0 (=0)]
] -37.3 MRshow
LT0
LC0 setrgbcolor
7640 6145 M
447 0 V
688 4064 M
8 0 V
7 -48 V
8 0 V
7 -103 V
8 0 V
7 0 V
8 0 V
7 0 V
8 0 V
7 175 V
8 0 V
7 -108 V
8 0 V
7 -67 V
8 0 V
7 177 V
8 0 V
7 -177 V
8 0 V
8 195 V
7 0 V
8 -195 V
7 0 V
8 361 V
7 0 V
8 35 V
7 0 V
8 -396 V
7 0 V
8 137 V
7 0 V
8 514 V
7 0 V
8 -651 V
7 0 V
8 0 V
7 0 V
8 0 V
7 0 V
8 0 V
8 0 V
7 2 V
8 0 V
7 -2 V
8 0 V
7 17 V
8 0 V
7 180 V
8 0 V
7 687 V
8 0 V
7 -735 V
8 0 V
7 -149 V
8 0 V
7 0 V
8 0 V
7 0 V
8 0 V
8 0 V
7 0 V
8 0 V
7 0 V
8 54 V
7 0 V
8 -54 V
7 0 V
8 37 V
7 0 V
8 -37 V
7 0 V
8 0 V
7 0 V
8 114 V
7 0 V
8 437 V
7 0 V
8 -349 V
7 0 V
8 -202 V
8 0 V
7 168 V
8 0 V
7 570 V
8 0 V
7 -738 V
8 0 V
7 180 V
8 0 V
7 -180 V
8 0 V
7 0 V
8 0 V
7 0 V
8 0 V
7 0 V
8 0 V
7 517 V
8 0 V
8 -508 V
7 0 V
8 -9 V
stroke 1456 3913 M
7 0 V
8 270 V
7 0 V
8 -270 V
7 0 V
8 0 V
7 0 V
8 0 V
7 0 V
8 245 V
7 0 V
8 -50 V
7 0 V
8 -195 V
7 0 V
8 176 V
7 0 V
8 -79 V
8 0 V
7 -97 V
8 0 V
7 94 V
8 0 V
7 333 V
8 0 V
7 -315 V
8 0 V
7 -112 V
8 0 V
7 465 V
8 0 V
7 -465 V
8 0 V
7 388 V
8 0 V
7 -388 V
8 0 V
8 37 V
7 0 V
8 -37 V
7 0 V
8 593 V
7 0 V
8 -376 V
7 0 V
8 -217 V
7 0 V
8 278 V
7 0 V
8 -29 V
7 0 V
8 -249 V
7 0 V
8 181 V
7 0 V
8 -181 V
7 0 V
8 0 V
8 0 V
7 0 V
8 0 V
7 0 V
8 0 V
7 362 V
8 0 V
7 -148 V
8 0 V
7 -214 V
8 0 V
7 411 V
8 0 V
7 -384 V
8 0 V
7 -27 V
8 0 V
7 266 V
8 0 V
8 -266 V
7 0 V
8 0 V
7 0 V
8 0 V
7 0 V
8 0 V
7 0 V
8 0 V
7 0 V
8 306 V
7 0 V
8 -306 V
7 0 V
8 259 V
7 0 V
8 120 V
7 0 V
8 -379 V
7 0 V
8 0 V
8 0 V
7 136 V
8 0 V
7 -136 V
8 0 V
7 96 V
stroke 2238 4009 M
8 0 V
7 -19 V
8 0 V
7 -77 V
8 0 V
7 70 V
8 0 V
7 -27 V
8 0 V
7 523 V
8 0 V
7 -566 V
8 0 V
8 0 V
7 0 V
8 0 V
7 0 V
8 445 V
7 0 V
8 119 V
7 0 V
8 -461 V
7 0 V
8 -7 V
7 0 V
8 455 V
7 0 V
8 -551 V
7 0 V
8 0 V
7 0 V
8 329 V
7 0 V
8 -245 V
8 0 V
7 -84 V
8 0 V
7 0 V
8 0 V
7 32 V
8 0 V
7 -32 V
8 0 V
7 273 V
8 0 V
7 -273 V
8 0 V
7 174 V
8 0 V
7 -46 V
8 0 V
7 119 V
8 0 V
8 163 V
7 0 V
8 -410 V
7 0 V
8 0 V
7 0 V
8 341 V
7 0 V
8 -241 V
7 0 V
8 -100 V
7 0 V
8 0 V
7 0 V
8 0 V
7 0 V
8 0 V
7 0 V
8 289 V
7 0 V
8 -129 V
8 0 V
7 -160 V
8 0 V
7 73 V
8 0 V
7 -73 V
8 0 V
7 453 V
8 0 V
7 -107 V
8 0 V
7 -346 V
8 0 V
7 247 V
8 0 V
7 -129 V
8 0 V
7 -3 V
8 0 V
8 426 V
7 0 V
8 -541 V
7 0 V
8 510 V
7 0 V
8 -290 V
7 0 V
8 -220 V
7 0 V
8 125 V
stroke 3021 4038 M
7 0 V
8 -125 V
7 0 V
8 219 V
7 0 V
8 -219 V
7 0 V
8 0 V
7 0 V
8 0 V
8 0 V
7 0 V
8 0 V
7 213 V
8 0 V
7 -213 V
8 0 V
7 0 V
8 0 V
7 316 V
8 0 V
7 -221 V
8 0 V
7 -95 V
8 0 V
7 0 V
8 0 V
7 281 V
8 0 V
8 -245 V
7 0 V
8 378 V
7 0 V
8 -414 V
7 0 V
8 122 V
7 0 V
8 -122 V
7 0 V
8 187 V
7 0 V
8 -187 V
7 0 V
8 53 V
7 0 V
8 33 V
7 0 V
8 308 V
7 0 V
8 -394 V
8 0 V
7 0 V
8 0 V
7 0 V
8 0 V
7 0 V
8 0 V
7 0 V
8 0 V
7 0 V
8 0 V
7 170 V
8 0 V
7 -170 V
8 0 V
7 0 V
8 0 V
7 141 V
8 0 V
8 -141 V
7 0 V
8 0 V
7 0 V
8 0 V
7 0 V
8 210 V
7 0 V
8 24 V
7 0 V
8 -6 V
7 0 V
8 -228 V
7 0 V
8 0 V
7 0 V
8 0 V
7 0 V
8 0 V
7 0 V
8 0 V
8 0 V
7 0 V
8 0 V
7 774 V
8 0 V
7 -774 V
8 0 V
7 0 V
8 0 V
7 362 V
8 0 V
7 -168 V
8 0 V
7 -189 V
stroke 3803 3918 M
8 0 V
7 784 V
8 0 V
7 -643 V
8 0 V
8 -146 V
7 0 V
8 215 V
7 0 V
8 261 V
7 0 V
8 -476 V
7 0 V
8 124 V
7 0 V
8 -124 V
7 0 V
8 0 V
7 0 V
8 0 V
7 0 V
8 455 V
7 0 V
8 -279 V
7 0 V
8 -176 V
8 0 V
7 0 V
8 0 V
7 0 V
8 0 V
7 0 V
8 0 V
7 82 V
8 0 V
7 -82 V
8 0 V
7 112 V
8 0 V
7 -112 V
8 0 V
7 0 V
8 0 V
7 267 V
8 0 V
8 -267 V
7 0 V
8 100 V
7 0 V
8 105 V
7 0 V
8 -205 V
7 0 V
8 0 V
7 0 V
8 0 V
7 0 V
8 0 V
7 0 V
8 108 V
7 0 V
8 -108 V
7 0 V
8 0 V
7 0 V
8 419 V
8 0 V
7 -260 V
8 0 V
7 720 V
8 0 V
7 -879 V
8 0 V
7 0 V
8 0 V
7 0 V
8 0 V
7 0 V
8 0 V
7 0 V
8 0 V
7 0 V
8 0 V
7 0 V
8 0 V
8 1445 V
7 -1445 V
8 0 V
7 0 V
8 315 V
7 0 V
8 -288 V
7 0 V
8 -27 V
7 0 V
8 238 V
7 0 V
8 -238 V
7 0 V
8 0 V
7 0 V
8 280 V
7 0 V
8 -280 V
stroke 4586 3913 M
7 0 V
8 389 V
8 0 V
7 -106 V
8 0 V
7 -283 V
8 0 V
7 383 V
8 0 V
7 185 V
8 0 V
7 -412 V
8 0 V
7 71 V
8 0 V
7 30 V
8 0 V
7 -257 V
8 0 V
7 283 V
8 0 V
8 -185 V
7 0 V
8 -98 V
7 0 V
8 0 V
7 0 V
8 210 V
7 0 V
8 -210 V
7 0 V
8 70 V
7 0 V
8 352 V
7 0 V
8 -422 V
7 0 V
8 0 V
7 0 V
8 0 V
7 0 V
8 421 V
8 0 V
7 -421 V
8 0 V
7 0 V
8 0 V
7 0 V
8 0 V
7 180 V
8 0 V
7 -180 V
8 0 V
7 741 V
8 0 V
7 -741 V
8 0 V
7 50 V
8 0 V
7 -50 V
8 0 V
8 0 V
7 0 V
8 0 V
7 0 V
8 0 V
7 0 V
8 633 V
7 0 V
8 139 V
7 0 V
8 -772 V
7 0 V
8 498 V
7 0 V
8 -498 V
7 0 V
8 67 V
7 0 V
8 229 V
7 0 V
8 -296 V
8 0 V
7 0 V
8 0 V
7 81 V
8 0 V
7 -65 V
8 0 V
7 -16 V
8 0 V
7 0 V
8 0 V
7 49 V
8 0 V
7 113 V
8 0 V
7 177 V
8 0 V
7 -339 V
8 0 V
8 86 V
7 0 V
8 426 V
stroke 5369 4425 M
7 0 V
8 -111 V
7 0 V
8 -401 V
7 0 V
8 154 V
7 0 V
8 -96 V
7 0 V
8 -58 V
7 0 V
8 0 V
7 0 V
8 0 V
7 0 V
8 779 V
7 0 V
8 -779 V
8 0 V
7 406 V
8 0 V
7 -406 V
8 0 V
7 0 V
8 0 V
7 0 V
8 0 V
7 0 V
8 0 V
7 0 V
8 0 V
7 0 V
8 0 V
7 0 V
8 0 V
7 0 V
8 0 V
8 303 V
7 0 V
8 334 V
7 0 V
8 -385 V
7 0 V
8 -82 V
7 0 V
8 -170 V
7 0 V
8 44 V
7 0 V
8 -44 V
7 0 V
8 695 V
7 0 V
8 -695 V
7 0 V
8 352 V
7 0 V
8 -352 V
8 0 V
7 0 V
8 0 V
7 0 V
8 0 V
7 61 V
8 0 V
7 -61 V
8 0 V
7 0 V
8 0 V
7 0 V
8 0 V
7 279 V
8 0 V
7 -9 V
8 0 V
7 -270 V
8 0 V
8 0 V
7 0 V
8 0 V
7 0 V
8 69 V
7 0 V
8 -69 V
7 0 V
8 358 V
7 0 V
8 -287 V
7 0 V
8 -71 V
7 0 V
8 0 V
7 0 V
8 426 V
7 0 V
8 -272 V
7 0 V
8 -154 V
8 0 V
7 213 V
8 0 V
7 -213 V
8 0 V
7 142 V
stroke 6151 4055 M
8 0 V
7 -142 V
8 0 V
7 0 V
8 0 V
7 1 V
8 0 V
7 265 V
8 0 V
7 -193 V
8 0 V
7 -73 V
8 0 V
8 808 V
7 0 V
8 -790 V
7 0 V
8 490 V
7 0 V
8 -427 V
7 0 V
8 -63 V
7 0 V
8 -18 V
7 0 V
8 354 V
7 0 V
8 -296 V
7 0 V
8 166 V
7 0 V
8 -224 V
7 0 V
8 460 V
8 0 V
7 -460 V
8 0 V
7 0 V
8 0 V
7 0 V
8 0 V
7 0 V
8 0 V
7 194 V
8 0 V
7 -194 V
8 0 V
7 0 V
8 0 V
7 0 V
8 0 V
7 0 V
8 0 V
8 0 V
7 0 V
8 0 V
7 0 V
8 943 V
7 0 V
8 -679 V
7 0 V
8 173 V
7 0 V
8 -321 V
7 0 V
8 -40 V
7 0 V
8 430 V
7 0 V
8 -506 V
7 0 V
8 201 V
7 0 V
8 73 V
8 0 V
7 -248 V
8 0 V
7 -26 V
8 0 V
7 0 V
8 0 V
7 129 V
8 0 V
7 80 V
8 0 V
7 368 V
8 0 V
7 -57 V
8 0 V
7 -520 V
8 0 V
7 609 V
8 0 V
8 -609 V
7 0 V
8 0 V
7 0 V
8 447 V
7 0 V
8 285 V
7 0 V
8 -732 V
7 0 V
8 0 V
stroke 6934 3913 M
7 0 V
8 776 V
7 0 V
8 -776 V
7 0 V
8 0 V
7 0 V
8 0 V
7 0 V
8 588 V
8 0 V
7 -588 V
8 0 V
7 0 V
8 0 V
7 0 V
8 0 V
7 0 V
8 0 V
7 0 V
8 0 V
7 174 V
8 0 V
7 -174 V
8 0 V
7 342 V
8 0 V
7 -204 V
8 0 V
8 -138 V
7 0 V
8 0 V
7 0 V
8 723 V
7 0 V
8 -723 V
7 0 V
8 52 V
7 0 V
8 -48 V
7 0 V
8 -4 V
7 0 V
8 233 V
7 0 V
8 466 V
7 0 V
8 -699 V
7 0 V
8 163 V
8 0 V
7 -163 V
8 0 V
7 0 V
8 0 V
7 111 V
8 0 V
7 15 V
8 0 V
7 -126 V
8 0 V
7 356 V
8 0 V
7 -356 V
8 0 V
7 550 V
8 0 V
7 -292 V
8 0 V
8 240 V
7 0 V
8 -68 V
7 0 V
8 -5 V
7 0 V
8 -425 V
7 0 V
8 0 V
7 0 V
8 0 V
7 0 V
8 0 V
7 0 V
8 504 V
7 0 V
8 -504 V
7 0 V
8 0 V
7 0 V
8 0 V
8 0 V
7 244 V
8 0 V
7 175 V
8 0 V
7 -419 V
8 0 V
7 0 V
8 0 V
7 164 V
8 0 V
7 -164 V
8 0 V
7 0 V
stroke 7716 3913 M
8 0 V
7 0 V
8 0 V
7 0 V
8 0 V
8 0 V
7 0 V
8 0 V
7 0 V
8 49 V
7 0 V
8 757 V
7 0 V
8 -663 V
7 0 V
8 -143 V
7 0 V
8 211 V
7 0 V
8 -211 V
7 0 V
8 0 V
7 0 V
8 0 V
7 0 V
8 324 V
8 0 V
7 -324 V
8 0 V
7 85 V
8 0 V
7 286 V
8 0 V
7 -329 V
8 0 V
7 -42 V
8 0 V
7 0 V
8 0 V
7 180 V
8 0 V
7 338 V
8 0 V
7 -518 V
8 0 V
8 0 V
7 0 V
8 40 V
7 0 V
8 635 V
7 0 V
8 -123 V
7 0 V
8 -552 V
7 0 V
8 508 V
7 0 V
8 -277 V
7 0 V
8 -134 V
7 0 V
8 -97 V
7 0 V
8 0 V
7 0 V
% End plot #1
% Begin plot #2
stroke
LT0
LC0 setrgbcolor
688 4064 M
8 0 V
7 -48 V
8 0 V
7 -103 V
8 0 V
7 0 V
8 0 V
7 0 V
8 0 V
7 175 V
8 0 V
7 -108 V
8 0 V
7 -67 V
8 0 V
7 177 V
8 0 V
7 -177 V
8 0 V
8 195 V
7 0 V
8 -195 V
7 0 V
8 361 V
7 0 V
8 35 V
7 0 V
8 -396 V
7 0 V
8 137 V
7 0 V
8 514 V
7 0 V
8 -651 V
7 0 V
8 0 V
7 0 V
8 0 V
7 0 V
8 0 V
8 0 V
7 2 V
8 0 V
7 -2 V
8 0 V
7 17 V
8 0 V
7 180 V
8 0 V
7 687 V
8 0 V
7 -735 V
8 0 V
7 -149 V
8 0 V
7 0 V
8 0 V
7 0 V
8 0 V
8 0 V
7 0 V
8 0 V
7 0 V
8 54 V
7 0 V
8 -54 V
7 0 V
8 37 V
7 0 V
8 -37 V
7 0 V
8 0 V
7 0 V
8 114 V
7 0 V
8 437 V
7 0 V
8 -349 V
7 0 V
8 -202 V
8 0 V
7 168 V
8 0 V
7 570 V
8 0 V
7 -738 V
8 0 V
7 180 V
8 0 V
7 -180 V
8 0 V
7 0 V
8 0 V
7 0 V
8 0 V
7 0 V
8 0 V
7 517 V
8 0 V
8 -508 V
7 0 V
8 -9 V
7 0 V
8 270 V
stroke 1471 4183 M
7 0 V
8 -270 V
7 0 V
8 0 V
7 0 V
8 0 V
7 0 V
8 245 V
7 0 V
8 -50 V
7 0 V
8 -195 V
7 0 V
8 176 V
7 0 V
8 -79 V
8 0 V
7 -97 V
8 0 V
7 94 V
8 0 V
7 333 V
8 0 V
7 -315 V
8 0 V
7 -112 V
8 0 V
7 465 V
8 0 V
7 -465 V
8 0 V
7 388 V
8 0 V
7 -388 V
8 0 V
8 37 V
7 0 V
8 -37 V
7 0 V
8 593 V
7 0 V
8 -376 V
7 0 V
8 -217 V
7 0 V
8 278 V
7 0 V
8 -29 V
7 0 V
8 -249 V
7 0 V
8 181 V
7 0 V
8 -181 V
7 0 V
8 0 V
8 0 V
7 0 V
8 0 V
7 0 V
8 0 V
7 362 V
8 0 V
7 -148 V
8 0 V
7 -214 V
8 0 V
7 411 V
8 0 V
7 -384 V
8 0 V
7 -27 V
8 0 V
7 266 V
8 0 V
8 -266 V
7 0 V
8 0 V
7 0 V
8 0 V
7 0 V
8 0 V
7 0 V
8 0 V
7 0 V
8 306 V
7 0 V
8 -306 V
7 0 V
8 259 V
7 0 V
8 120 V
7 0 V
8 -379 V
7 0 V
8 0 V
8 0 V
7 136 V
8 0 V
7 -136 V
8 0 V
7 96 V
8 0 V
7 -19 V
stroke 2253 3990 M
8 0 V
7 -77 V
8 0 V
7 70 V
8 0 V
7 -27 V
8 0 V
7 523 V
8 0 V
7 -566 V
8 0 V
8 0 V
7 0 V
8 0 V
7 0 V
8 445 V
7 0 V
8 119 V
7 0 V
8 -461 V
7 0 V
8 -7 V
7 0 V
8 455 V
7 0 V
8 -551 V
7 0 V
8 0 V
7 0 V
8 329 V
7 0 V
8 -245 V
8 0 V
7 -84 V
8 0 V
7 0 V
8 0 V
7 32 V
8 0 V
7 -32 V
8 0 V
7 273 V
8 0 V
7 -273 V
8 0 V
7 174 V
8 0 V
7 -46 V
8 0 V
7 119 V
8 0 V
8 163 V
7 0 V
8 -410 V
7 0 V
8 0 V
7 0 V
8 341 V
7 0 V
8 -241 V
7 0 V
8 -100 V
7 0 V
8 0 V
7 0 V
8 0 V
7 0 V
8 0 V
7 0 V
8 289 V
7 0 V
8 -129 V
8 0 V
7 -160 V
8 0 V
7 73 V
8 0 V
7 -73 V
8 0 V
7 453 V
8 0 V
7 -107 V
8 0 V
7 -346 V
8 0 V
7 247 V
8 0 V
7 -129 V
8 0 V
7 -3 V
8 0 V
8 426 V
7 0 V
8 -541 V
7 0 V
8 510 V
7 0 V
8 -290 V
7 0 V
8 -220 V
7 0 V
8 125 V
7 0 V
8 -125 V
stroke 3036 3913 M
7 0 V
8 219 V
7 0 V
8 -219 V
7 0 V
8 0 V
7 0 V
8 0 V
8 0 V
7 0 V
8 0 V
7 213 V
8 0 V
7 -213 V
8 0 V
7 0 V
8 0 V
7 316 V
8 0 V
7 -221 V
8 0 V
7 -95 V
8 0 V
7 0 V
8 0 V
7 281 V
8 0 V
8 -245 V
7 0 V
8 378 V
7 0 V
8 -414 V
7 0 V
8 122 V
7 0 V
8 -122 V
7 0 V
8 187 V
7 0 V
8 -187 V
7 0 V
8 53 V
7 0 V
8 33 V
7 0 V
8 308 V
7 0 V
8 -394 V
8 0 V
7 0 V
8 0 V
7 0 V
8 0 V
7 0 V
8 0 V
7 0 V
8 0 V
7 0 V
8 0 V
7 170 V
8 0 V
7 -170 V
8 0 V
7 0 V
8 0 V
7 141 V
8 0 V
8 -141 V
7 0 V
8 0 V
7 0 V
8 0 V
7 0 V
8 210 V
7 0 V
8 24 V
7 0 V
8 -6 V
7 0 V
8 -228 V
7 0 V
8 0 V
7 0 V
8 0 V
7 0 V
8 0 V
7 0 V
8 0 V
8 0 V
7 0 V
8 0 V
7 774 V
8 0 V
7 -774 V
8 0 V
7 0 V
8 0 V
7 362 V
8 0 V
7 -168 V
8 0 V
7 -189 V
8 0 V
7 784 V
stroke 3818 4702 M
8 0 V
7 -643 V
8 0 V
8 -146 V
7 0 V
8 215 V
7 0 V
8 261 V
7 0 V
8 -476 V
7 0 V
8 124 V
7 0 V
8 -124 V
7 0 V
8 0 V
7 0 V
8 0 V
7 0 V
8 455 V
7 0 V
8 -279 V
7 0 V
8 -176 V
8 0 V
7 0 V
8 0 V
7 0 V
8 0 V
7 0 V
8 0 V
7 82 V
8 0 V
7 -82 V
8 0 V
7 112 V
8 0 V
7 -112 V
8 0 V
7 0 V
8 0 V
7 267 V
8 0 V
8 -267 V
7 0 V
8 100 V
7 0 V
8 105 V
7 0 V
8 -205 V
7 0 V
8 0 V
7 0 V
8 0 V
7 0 V
8 0 V
7 0 V
8 108 V
7 0 V
8 -108 V
7 0 V
8 0 V
7 0 V
8 419 V
8 0 V
7 -260 V
8 0 V
7 720 V
8 0 V
7 -879 V
8 0 V
7 0 V
8 0 V
7 0 V
8 0 V
7 0 V
8 0 V
7 0 V
8 0 V
7 0 V
8 0 V
7 0 V
8 0 V
8 1825 V
7 -1825 V
8 0 V
7 0 V
8 315 V
7 0 V
8 -288 V
7 0 V
8 -27 V
7 0 V
8 238 V
7 0 V
8 -238 V
7 0 V
8 0 V
7 0 V
8 280 V
7 0 V
8 -280 V
7 0 V
8 389 V
stroke 4601 4302 M
8 0 V
7 -106 V
8 0 V
7 -283 V
8 0 V
7 383 V
8 0 V
7 185 V
8 0 V
7 -412 V
8 0 V
7 71 V
8 0 V
7 30 V
8 0 V
7 -257 V
8 0 V
7 283 V
8 0 V
8 -185 V
7 0 V
8 -98 V
7 0 V
8 0 V
7 0 V
8 210 V
7 0 V
8 -210 V
7 0 V
8 70 V
7 0 V
8 352 V
7 0 V
8 -422 V
7 0 V
8 0 V
7 0 V
8 0 V
7 0 V
8 421 V
8 0 V
7 -421 V
8 0 V
7 0 V
8 0 V
7 0 V
8 0 V
7 180 V
8 0 V
7 -180 V
8 0 V
7 741 V
8 0 V
7 -741 V
8 0 V
7 50 V
8 0 V
7 -50 V
8 0 V
8 0 V
7 0 V
8 0 V
7 0 V
8 0 V
7 0 V
8 633 V
7 0 V
8 139 V
7 0 V
8 -772 V
7 0 V
8 498 V
7 0 V
8 -498 V
7 0 V
8 67 V
7 0 V
8 229 V
7 0 V
8 -296 V
8 0 V
7 0 V
8 0 V
7 81 V
8 0 V
7 -65 V
8 0 V
7 -16 V
8 0 V
7 0 V
8 0 V
7 49 V
8 0 V
7 113 V
8 0 V
7 177 V
8 0 V
7 -339 V
8 0 V
8 86 V
7 0 V
8 426 V
7 0 V
8 -111 V
stroke 5384 4314 M
7 0 V
8 -401 V
7 0 V
8 154 V
7 0 V
8 -96 V
7 0 V
8 -58 V
7 0 V
8 0 V
7 0 V
8 0 V
7 0 V
8 779 V
7 0 V
8 -779 V
8 0 V
7 406 V
8 0 V
7 -406 V
8 0 V
7 0 V
8 0 V
7 0 V
8 0 V
7 0 V
8 0 V
7 0 V
8 0 V
7 0 V
8 0 V
7 0 V
8 0 V
7 0 V
8 0 V
8 303 V
7 0 V
8 334 V
7 0 V
8 -385 V
7 0 V
8 -82 V
7 0 V
8 -170 V
7 0 V
8 44 V
7 0 V
8 -44 V
7 0 V
8 695 V
7 0 V
8 -695 V
7 0 V
8 352 V
7 0 V
8 -352 V
8 0 V
7 0 V
8 0 V
7 0 V
8 0 V
7 61 V
8 0 V
7 -61 V
8 0 V
7 0 V
8 0 V
7 0 V
8 0 V
7 279 V
8 0 V
7 -9 V
8 0 V
7 -270 V
8 0 V
8 0 V
7 0 V
8 0 V
7 0 V
8 69 V
7 0 V
8 -69 V
7 0 V
8 358 V
7 0 V
8 -287 V
7 0 V
8 -71 V
7 0 V
8 0 V
7 0 V
8 426 V
7 0 V
8 -272 V
7 0 V
8 -154 V
8 0 V
7 213 V
8 0 V
7 -213 V
8 0 V
7 142 V
8 0 V
7 -142 V
stroke 6166 3913 M
8 0 V
7 0 V
8 0 V
7 1 V
8 0 V
7 265 V
8 0 V
7 -193 V
8 0 V
7 -73 V
8 0 V
8 808 V
7 0 V
8 -790 V
7 0 V
8 490 V
7 0 V
8 -427 V
7 0 V
8 -63 V
7 0 V
8 -18 V
7 0 V
8 354 V
7 0 V
8 -296 V
7 0 V
8 166 V
7 0 V
8 -224 V
7 0 V
8 460 V
8 0 V
7 -460 V
8 0 V
7 0 V
8 0 V
7 0 V
8 0 V
7 0 V
8 0 V
7 194 V
8 0 V
7 -194 V
8 0 V
7 0 V
8 0 V
7 0 V
8 0 V
7 0 V
8 0 V
8 0 V
7 0 V
8 0 V
7 0 V
8 943 V
7 0 V
8 -679 V
7 0 V
8 173 V
7 0 V
8 -321 V
7 0 V
8 -40 V
7 0 V
8 430 V
7 0 V
8 -506 V
7 0 V
8 201 V
7 0 V
8 73 V
8 0 V
7 -248 V
8 0 V
7 -26 V
8 0 V
7 0 V
8 0 V
7 129 V
8 0 V
7 80 V
8 0 V
7 368 V
8 0 V
7 -57 V
8 0 V
7 -520 V
8 0 V
7 609 V
8 0 V
8 -609 V
7 0 V
8 0 V
7 0 V
8 447 V
7 0 V
8 285 V
7 0 V
8 -732 V
7 0 V
8 0 V
7 0 V
8 776 V
stroke 6949 4689 M
7 0 V
8 -776 V
7 0 V
8 0 V
7 0 V
8 0 V
7 0 V
8 588 V
8 0 V
7 -588 V
8 0 V
7 0 V
8 0 V
7 0 V
8 0 V
7 0 V
8 0 V
7 0 V
8 0 V
7 174 V
8 0 V
7 -174 V
8 0 V
7 342 V
8 0 V
7 -204 V
8 0 V
8 -138 V
7 0 V
8 0 V
7 0 V
8 723 V
7 0 V
8 -723 V
7 0 V
8 52 V
7 0 V
8 -48 V
7 0 V
8 -4 V
7 0 V
8 233 V
7 0 V
8 466 V
7 0 V
8 -699 V
7 0 V
8 163 V
8 0 V
7 -163 V
8 0 V
7 0 V
8 0 V
7 111 V
8 0 V
7 15 V
8 0 V
7 -126 V
8 0 V
7 356 V
8 0 V
7 -356 V
8 0 V
7 550 V
8 0 V
7 -292 V
8 0 V
8 240 V
7 0 V
8 -68 V
7 0 V
8 -5 V
7 0 V
8 -425 V
7 0 V
8 0 V
7 0 V
8 0 V
7 0 V
8 0 V
7 0 V
8 504 V
7 0 V
8 -504 V
7 0 V
8 0 V
7 0 V
8 0 V
8 0 V
7 244 V
8 0 V
7 175 V
8 0 V
7 -419 V
8 0 V
7 0 V
8 0 V
7 164 V
8 0 V
7 -164 V
8 0 V
7 0 V
8 0 V
7 0 V
stroke 7731 3913 M
8 0 V
7 0 V
8 0 V
8 0 V
7 0 V
8 0 V
7 0 V
8 49 V
7 0 V
8 757 V
7 0 V
8 -663 V
7 0 V
8 -143 V
7 0 V
8 211 V
7 0 V
8 -211 V
7 0 V
8 0 V
7 0 V
8 0 V
7 0 V
8 324 V
8 0 V
7 -324 V
8 0 V
7 85 V
8 0 V
7 286 V
8 0 V
7 -329 V
8 0 V
7 -42 V
8 0 V
7 0 V
8 0 V
7 180 V
8 0 V
7 338 V
8 0 V
7 -518 V
8 0 V
8 0 V
7 0 V
8 40 V
7 0 V
8 635 V
7 0 V
8 -123 V
7 0 V
8 -552 V
7 0 V
8 508 V
7 0 V
8 -277 V
7 0 V
8 -134 V
7 0 V
8 -97 V
7 0 V
8 0 V
7 0 V
% End plot #2
stroke
1.000 UL
LTb
688 6321 N
0 -2408 V
7525 0 V
0 2408 V
-7525 0 V
Z stroke
1.000 UP
3.000 UL
LTb
1.00 1.00 1.00 C 688 5358 M
0 120 V
stroke
LTb
1.00 1.00 1.00 C 8213 5358 M
0 120 V
stroke
1.000 UL
LTb
613 5298 M
150 120 V
-150 0 R
150 120 V
8138 5298 M
150 120 V
-150 0 R
150 120 V
stroke
3.000 UL
LTb
1.00 1.00 1.00 C 4451 5358 M
0 120 V
stroke
1.000 UL
LTb
4375 5298 M
151 120 V
-151 0 R
151 120 V
688 2319 M
63 0 V
7462 0 R
-63 0 V
stroke
592 2319 M
[ [(Helvetica) 160.0 0.0 true true 0 (50)]
] -53.3 MRshow
1.000 UL
LTb
688 2921 M
63 0 V
7462 0 R
-63 0 V
stroke
592 2921 M
[ [(Helvetica) 160.0 0.0 true true 0 (55)]
] -53.3 MRshow
1.000 UL
LTb
688 512 M
63 0 V
7462 0 R
-63 0 V
stroke
592 512 M
[ [(Helvetica) 160.0 0.0 true true 0 ( 0)]
] -53.3 MRshow
1.000 UL
LTb
688 1114 M
63 0 V
7462 0 R
-63 0 V
stroke
592 1114 M
[ [(Helvetica) 160.0 0.0 true true 0 ( 5)]
] -53.3 MRshow
1.000 UL
LTb
688 1717 M
63 0 V
7462 0 R
-63 0 V
stroke
592 1717 M
[ [(Helvetica) 160.0 0.0 true true 0 ( 10)]
] -53.3 MRshow
1.000 UL
LTb
688 512 M
0 63 V
0 2346 R
0 -63 V
stroke
688 352 M
[ [(Helvetica) 160.0 0.0 true true 0 ( 0)]
] -53.3 MCshow
1.000 UL
LTb
1441 512 M
0 63 V
0 2346 R
0 -63 V
stroke
1441 352 M
[ [(Helvetica) 160.0 0.0 true true 0 ( 100)]
] -53.3 MCshow
1.000 UL
LTb
2193 512 M
0 63 V
0 2346 R
0 -63 V
stroke
2193 352 M
[ [(Helvetica) 160.0 0.0 true true 0 ( 200)]
] -53.3 MCshow
1.000 UL
LTb
2946 512 M
0 63 V
0 2346 R
0 -63 V
stroke
2946 352 M
[ [(Helvetica) 160.0 0.0 true true 0 ( 300)]
] -53.3 MCshow
1.000 UL
LTb
3698 512 M
0 63 V
0 2346 R
0 -63 V
stroke
3698 352 M
[ [(Helvetica) 160.0 0.0 true true 0 ( 400)]
] -53.3 MCshow
1.000 UL
LTb
4451 512 M
0 63 V
0 2346 R
0 -63 V
stroke
4451 352 M
[ [(Helvetica) 160.0 0.0 true true 0 ( 500)]
] -53.3 MCshow
1.000 UL
LTb
5203 512 M
0 63 V
0 2346 R
0 -63 V
stroke
5203 352 M
[ [(Helvetica) 160.0 0.0 true true 0 ( 600)]
] -53.3 MCshow
1.000 UL
LTb
5956 512 M
0 63 V
0 2346 R
0 -63 V
stroke
5956 352 M
[ [(Helvetica) 160.0 0.0 true true 0 ( 700)]
] -53.3 MCshow
1.000 UL
LTb
6708 512 M
0 63 V
0 2346 R
0 -63 V
stroke
6708 352 M
[ [(Helvetica) 160.0 0.0 true true 0 ( 800)]
] -53.3 MCshow
1.000 UL
LTb
7461 512 M
0 63 V
0 2346 R
0 -63 V
stroke
7461 352 M
[ [(Helvetica) 160.0 0.0 true true 0 ( 900)]
] -53.3 MCshow
1.000 UL
LTb
8213 512 M
0 63 V
0 2346 R
0 -63 V
stroke
8213 352 M
[ [(Helvetica) 160.0 0.0 true true 0 ( 1000)]
] -53.3 MCshow
1.000 UL
LTb
1.000 UL
LTb
688 2921 N
688 512 L
7525 0 V
0 2409 V
-7525 0 V
Z stroke
LCb setrgbcolor
128 1716 M
currentpoint gsave translate -270 rotate 0 0 moveto
[ [(Helvetica) 180.0 0.0 true true 0 (Affinity)]
] -60.0 MCshow
grestore
LTb
LCb setrgbcolor
4450 112 M
[ [(Helvetica) 180.0 0.0 true true 0 (DNA position)]
] -60.0 MCshow
LTb
4450 3161 M
[ [(Helvetica) 160.0 0.0 true true 0 (B)]
] -53.3 MCshow
1.000 UP
1.000 UL
LTb
% Begin plot #1
2.100 UL
LT0
LC0 setrgbcolor
LCb setrgbcolor
7544 2745 M
[ [(Symbol) 160.0 0.0 true true 0 (e)]
[(Helvetica) 128.0 -48.0 true true 0 (ns)]
[(Helvetica) 160.0 0.0 true true 0 (=4)]
] -37.3 MRshow
LT0
LC0 setrgbcolor
7640 2745 M
447 0 V
688 994 M
8 0 V
7 0 V
8 0 V
7 0 V
8 0 V
7 0 V
8 0 V
7 0 V
8 0 V
7 0 V
8 0 V
7 0 V
8 0 V
7 0 V
8 0 V
7 0 V
8 0 V
7 0 V
8 0 V
8 0 V
7 0 V
8 0 V
7 0 V
8 0 V
7 0 V
8 0 V
7 0 V
8 0 V
7 0 V
8 0 V
7 0 V
8 169 V
7 0 V
8 -169 V
7 0 V
8 0 V
7 0 V
8 0 V
7 0 V
8 0 V
8 0 V
7 0 V
8 0 V
7 0 V
8 0 V
7 0 V
8 0 V
7 0 V
8 0 V
7 402 V
8 0 V
7 -402 V
8 0 V
7 0 V
8 0 V
7 0 V
8 0 V
7 0 V
8 0 V
8 0 V
7 0 V
8 0 V
7 0 V
8 0 V
7 0 V
8 0 V
7 0 V
8 0 V
7 0 V
8 0 V
7 0 V
8 0 V
7 0 V
8 0 V
7 0 V
8 69 V
7 0 V
8 -69 V
7 0 V
8 0 V
8 0 V
7 0 V
8 0 V
7 257 V
8 0 V
7 -257 V
8 0 V
7 0 V
8 0 V
7 0 V
8 0 V
7 0 V
8 0 V
7 0 V
8 0 V
7 0 V
8 0 V
7 35 V
8 0 V
8 -35 V
7 0 V
8 0 V
stroke 1456 994 M
7 0 V
8 0 V
7 0 V
8 0 V
7 0 V
8 0 V
7 0 V
8 0 V
7 0 V
8 0 V
7 0 V
8 0 V
7 0 V
8 0 V
7 0 V
8 0 V
7 0 V
8 0 V
8 0 V
7 0 V
8 0 V
7 0 V
8 0 V
7 0 V
8 0 V
7 0 V
8 0 V
7 0 V
8 0 V
7 0 V
8 0 V
7 0 V
8 0 V
7 0 V
8 0 V
7 0 V
8 0 V
8 0 V
7 0 V
8 0 V
7 0 V
8 111 V
7 0 V
8 -111 V
7 0 V
8 0 V
7 0 V
8 0 V
7 0 V
8 0 V
7 0 V
8 0 V
7 0 V
8 0 V
7 0 V
8 0 V
7 0 V
8 0 V
8 0 V
7 0 V
8 0 V
7 0 V
8 0 V
7 0 V
8 0 V
7 0 V
8 0 V
7 0 V
8 0 V
7 0 V
8 0 V
7 0 V
8 0 V
7 0 V
8 0 V
7 0 V
8 0 V
8 0 V
7 0 V
8 0 V
7 0 V
8 0 V
7 0 V
8 0 V
7 0 V
8 0 V
7 0 V
8 0 V
7 0 V
8 0 V
7 0 V
8 0 V
7 0 V
8 0 V
7 0 V
8 0 V
7 0 V
8 0 V
8 0 V
7 0 V
8 0 V
7 0 V
8 0 V
7 0 V
stroke 2238 994 M
8 0 V
7 0 V
8 0 V
7 0 V
8 0 V
7 0 V
8 0 V
7 0 V
8 0 V
7 84 V
8 0 V
7 -84 V
8 0 V
8 0 V
7 0 V
8 0 V
7 0 V
8 0 V
7 0 V
8 82 V
7 0 V
8 -82 V
7 0 V
8 0 V
7 0 V
8 69 V
7 0 V
8 -69 V
7 0 V
8 0 V
7 0 V
8 0 V
7 0 V
8 0 V
8 0 V
7 0 V
8 0 V
7 0 V
8 0 V
7 0 V
8 0 V
7 0 V
8 0 V
7 0 V
8 0 V
7 0 V
8 0 V
7 0 V
8 0 V
7 0 V
8 0 V
7 0 V
8 0 V
8 0 V
7 0 V
8 0 V
7 0 V
8 0 V
7 0 V
8 0 V
7 0 V
8 0 V
7 0 V
8 0 V
7 0 V
8 0 V
7 0 V
8 0 V
7 0 V
8 0 V
7 0 V
8 0 V
7 0 V
8 0 V
8 0 V
7 0 V
8 0 V
7 0 V
8 0 V
7 0 V
8 0 V
7 0 V
8 0 V
7 0 V
8 0 V
7 0 V
8 0 V
7 0 V
8 0 V
7 0 V
8 0 V
7 0 V
8 0 V
8 59 V
7 0 V
8 -59 V
7 0 V
8 28 V
7 0 V
8 -28 V
7 0 V
8 0 V
7 0 V
8 0 V
stroke 3021 994 M
7 0 V
8 0 V
7 0 V
8 0 V
7 0 V
8 0 V
7 0 V
8 0 V
7 0 V
8 0 V
8 0 V
7 0 V
8 0 V
7 0 V
8 0 V
7 0 V
8 0 V
7 0 V
8 0 V
7 0 V
8 0 V
7 0 V
8 0 V
7 0 V
8 0 V
7 0 V
8 0 V
7 0 V
8 0 V
8 0 V
7 0 V
8 0 V
7 0 V
8 0 V
7 0 V
8 0 V
7 0 V
8 0 V
7 0 V
8 0 V
7 0 V
8 0 V
7 0 V
8 0 V
7 0 V
8 0 V
7 0 V
8 0 V
7 0 V
8 0 V
8 0 V
7 0 V
8 0 V
7 0 V
8 0 V
7 0 V
8 0 V
7 0 V
8 0 V
7 0 V
8 0 V
7 0 V
8 0 V
7 0 V
8 0 V
7 0 V
8 0 V
7 0 V
8 0 V
8 0 V
7 0 V
8 0 V
7 0 V
8 0 V
7 0 V
8 0 V
7 0 V
8 0 V
7 0 V
8 0 V
7 0 V
8 0 V
7 0 V
8 0 V
7 0 V
8 0 V
7 0 V
8 0 V
7 0 V
8 0 V
8 0 V
7 0 V
8 0 V
7 292 V
8 0 V
7 -292 V
8 0 V
7 0 V
8 0 V
7 0 V
8 0 V
7 0 V
8 0 V
7 0 V
stroke 3803 994 M
8 0 V
7 307 V
8 0 V
7 -307 V
8 0 V
8 0 V
7 0 V
8 0 V
7 0 V
8 0 V
7 0 V
8 0 V
7 0 V
8 0 V
7 0 V
8 0 V
7 0 V
8 0 V
7 0 V
8 0 V
7 0 V
8 0 V
7 0 V
8 0 V
7 0 V
8 0 V
8 0 V
7 0 V
8 0 V
7 0 V
8 0 V
7 0 V
8 0 V
7 0 V
8 0 V
7 0 V
8 0 V
7 0 V
8 0 V
7 0 V
8 0 V
7 0 V
8 0 V
7 0 V
8 0 V
8 0 V
7 0 V
8 0 V
7 0 V
8 0 V
7 0 V
8 0 V
7 0 V
8 0 V
7 0 V
8 0 V
7 0 V
8 0 V
7 0 V
8 0 V
7 0 V
8 0 V
7 0 V
8 0 V
7 0 V
8 0 V
8 0 V
7 0 V
8 0 V
7 398 V
8 0 V
7 -398 V
8 0 V
7 0 V
8 0 V
7 0 V
8 0 V
7 0 V
8 0 V
7 0 V
8 0 V
7 0 V
8 0 V
7 0 V
8 0 V
8 963 V
7 -963 V
8 0 V
7 0 V
8 0 V
7 0 V
8 0 V
7 0 V
8 0 V
7 0 V
8 0 V
7 0 V
8 0 V
7 0 V
8 0 V
7 0 V
8 0 V
7 0 V
8 0 V
stroke 4586 994 M
7 0 V
8 0 V
8 0 V
7 0 V
8 0 V
7 0 V
8 0 V
7 0 V
8 0 V
7 86 V
8 0 V
7 -86 V
8 0 V
7 0 V
8 0 V
7 0 V
8 0 V
7 0 V
8 0 V
7 0 V
8 0 V
8 0 V
7 0 V
8 0 V
7 0 V
8 0 V
7 0 V
8 0 V
7 0 V
8 0 V
7 0 V
8 0 V
7 0 V
8 0 V
7 0 V
8 0 V
7 0 V
8 0 V
7 0 V
8 0 V
7 0 V
8 0 V
8 0 V
7 0 V
8 0 V
7 0 V
8 0 V
7 0 V
8 0 V
7 0 V
8 0 V
7 0 V
8 0 V
7 260 V
8 0 V
7 -260 V
8 0 V
7 0 V
8 0 V
7 0 V
8 0 V
8 0 V
7 0 V
8 0 V
7 0 V
8 0 V
7 0 V
8 151 V
7 0 V
8 139 V
7 0 V
8 -290 V
7 0 V
8 16 V
7 0 V
8 -16 V
7 0 V
8 0 V
7 0 V
8 0 V
7 0 V
8 0 V
8 0 V
7 0 V
8 0 V
7 0 V
8 0 V
7 0 V
8 0 V
7 0 V
8 0 V
7 0 V
8 0 V
7 0 V
8 0 V
7 0 V
8 0 V
7 0 V
8 0 V
7 0 V
8 0 V
8 0 V
7 0 V
8 30 V
stroke 5369 1024 M
7 0 V
8 -30 V
7 0 V
8 0 V
7 0 V
8 0 V
7 0 V
8 0 V
7 0 V
8 0 V
7 0 V
8 0 V
7 0 V
8 0 V
7 0 V
8 297 V
7 0 V
8 -297 V
8 0 V
7 0 V
8 0 V
7 0 V
8 0 V
7 0 V
8 0 V
7 0 V
8 0 V
7 0 V
8 0 V
7 0 V
8 0 V
7 0 V
8 0 V
7 0 V
8 0 V
7 0 V
8 0 V
8 0 V
7 0 V
8 155 V
7 0 V
8 -155 V
7 0 V
8 0 V
7 0 V
8 0 V
7 0 V
8 0 V
7 0 V
8 0 V
7 0 V
8 214 V
7 0 V
8 -214 V
7 0 V
8 0 V
7 0 V
8 0 V
8 0 V
7 0 V
8 0 V
7 0 V
8 0 V
7 0 V
8 0 V
7 0 V
8 0 V
7 0 V
8 0 V
7 0 V
8 0 V
7 0 V
8 0 V
7 0 V
8 0 V
7 0 V
8 0 V
8 0 V
7 0 V
8 0 V
7 0 V
8 0 V
7 0 V
8 0 V
7 0 V
8 0 V
7 0 V
8 0 V
7 0 V
8 0 V
7 0 V
8 0 V
7 0 V
8 0 V
7 0 V
8 0 V
7 0 V
8 0 V
8 0 V
7 0 V
8 0 V
7 0 V
8 0 V
7 0 V
stroke 6151 994 M
8 0 V
7 0 V
8 0 V
7 0 V
8 0 V
7 0 V
8 0 V
7 0 V
8 0 V
7 0 V
8 0 V
7 0 V
8 0 V
8 326 V
7 0 V
8 -326 V
7 0 V
8 26 V
7 0 V
8 -26 V
7 0 V
8 0 V
7 0 V
8 0 V
7 0 V
8 0 V
7 0 V
8 0 V
7 0 V
8 0 V
7 0 V
8 0 V
7 0 V
8 0 V
8 0 V
7 0 V
8 0 V
7 0 V
8 0 V
7 0 V
8 0 V
7 0 V
8 0 V
7 0 V
8 0 V
7 0 V
8 0 V
7 0 V
8 0 V
7 0 V
8 0 V
7 0 V
8 0 V
8 0 V
7 0 V
8 0 V
7 0 V
8 461 V
7 0 V
8 -461 V
7 0 V
8 0 V
7 0 V
8 0 V
7 0 V
8 0 V
7 0 V
8 24 V
7 0 V
8 -24 V
7 0 V
8 0 V
7 0 V
8 0 V
8 0 V
7 0 V
8 0 V
7 0 V
8 0 V
7 0 V
8 0 V
7 0 V
8 0 V
7 0 V
8 0 V
7 95 V
8 0 V
7 -57 V
8 0 V
7 -38 V
8 0 V
7 127 V
8 0 V
8 -127 V
7 0 V
8 0 V
7 0 V
8 0 V
7 0 V
8 250 V
7 0 V
8 -250 V
7 0 V
8 0 V
stroke 6934 994 M
7 0 V
8 294 V
7 0 V
8 -294 V
7 0 V
8 0 V
7 0 V
8 0 V
7 0 V
8 106 V
8 0 V
7 -106 V
8 0 V
7 0 V
8 0 V
7 0 V
8 0 V
7 0 V
8 0 V
7 0 V
8 0 V
7 0 V
8 0 V
7 0 V
8 0 V
7 0 V
8 0 V
7 0 V
8 0 V
8 0 V
7 0 V
8 0 V
7 0 V
8 242 V
7 0 V
8 -242 V
7 0 V
8 0 V
7 0 V
8 0 V
7 0 V
8 0 V
7 0 V
8 0 V
7 0 V
8 218 V
7 0 V
8 -218 V
7 0 V
8 0 V
8 0 V
7 0 V
8 0 V
7 0 V
8 0 V
7 0 V
8 0 V
7 0 V
8 0 V
7 0 V
8 0 V
7 0 V
8 0 V
7 0 V
8 0 V
7 68 V
8 0 V
7 -68 V
8 0 V
8 16 V
7 0 V
8 -16 V
7 0 V
8 0 V
7 0 V
8 0 V
7 0 V
8 0 V
7 0 V
8 0 V
7 0 V
8 0 V
7 0 V
8 22 V
7 0 V
8 -22 V
7 0 V
8 0 V
7 0 V
8 0 V
8 0 V
7 0 V
8 0 V
7 0 V
8 0 V
7 0 V
8 0 V
7 0 V
8 0 V
7 0 V
8 0 V
7 0 V
8 0 V
7 0 V
stroke 7716 994 M
8 0 V
7 0 V
8 0 V
7 0 V
8 0 V
8 0 V
7 0 V
8 0 V
7 0 V
8 0 V
7 0 V
8 324 V
7 0 V
8 -324 V
7 0 V
8 0 V
7 0 V
8 0 V
7 0 V
8 0 V
7 0 V
8 0 V
7 0 V
8 0 V
7 0 V
8 0 V
8 0 V
7 0 V
8 0 V
7 0 V
8 0 V
7 0 V
8 0 V
7 0 V
8 0 V
7 0 V
8 0 V
7 0 V
8 0 V
7 0 V
8 0 V
7 37 V
8 0 V
7 -37 V
8 0 V
8 0 V
7 0 V
8 0 V
7 0 V
8 193 V
7 0 V
8 -122 V
7 0 V
8 -71 V
7 0 V
8 26 V
7 0 V
8 -26 V
7 0 V
8 0 V
7 0 V
8 0 V
7 0 V
8 0 V
7 0 V
% End plot #1
% Begin plot #2
stroke
LT0
LC0 setrgbcolor
688 994 M
8 0 V
7 0 V
8 0 V
7 0 V
8 0 V
7 0 V
8 0 V
7 0 V
8 0 V
7 0 V
8 0 V
7 0 V
8 0 V
7 0 V
8 0 V
7 0 V
8 0 V
7 0 V
8 0 V
8 0 V
7 0 V
8 0 V
7 0 V
8 0 V
7 0 V
8 0 V
7 0 V
8 0 V
7 0 V
8 0 V
7 0 V
8 169 V
7 0 V
8 -169 V
7 0 V
8 0 V
7 0 V
8 0 V
7 0 V
8 0 V
8 0 V
7 0 V
8 0 V
7 0 V
8 0 V
7 0 V
8 0 V
7 0 V
8 0 V
7 402 V
8 0 V
7 -402 V
8 0 V
7 0 V
8 0 V
7 0 V
8 0 V
7 0 V
8 0 V
8 0 V
7 0 V
8 0 V
7 0 V
8 0 V
7 0 V
8 0 V
7 0 V
8 0 V
7 0 V
8 0 V
7 0 V
8 0 V
7 0 V
8 0 V
7 0 V
8 69 V
7 0 V
8 -69 V
7 0 V
8 0 V
8 0 V
7 0 V
8 0 V
7 257 V
8 0 V
7 -257 V
8 0 V
7 0 V
8 0 V
7 0 V
8 0 V
7 0 V
8 0 V
7 0 V
8 0 V
7 0 V
8 0 V
7 35 V
8 0 V
8 -35 V
7 0 V
8 0 V
7 0 V
8 0 V
stroke 1471 994 M
7 0 V
8 0 V
7 0 V
8 0 V
7 0 V
8 0 V
7 0 V
8 0 V
7 0 V
8 0 V
7 0 V
8 0 V
7 0 V
8 0 V
7 0 V
8 0 V
8 0 V
7 0 V
8 0 V
7 0 V
8 0 V
7 0 V
8 0 V
7 0 V
8 0 V
7 0 V
8 0 V
7 0 V
8 0 V
7 0 V
8 0 V
7 0 V
8 0 V
7 0 V
8 0 V
8 0 V
7 0 V
8 0 V
7 0 V
8 111 V
7 0 V
8 -111 V
7 0 V
8 0 V
7 0 V
8 0 V
7 0 V
8 0 V
7 0 V
8 0 V
7 0 V
8 0 V
7 0 V
8 0 V
7 0 V
8 0 V
8 0 V
7 0 V
8 0 V
7 0 V
8 0 V
7 0 V
8 0 V
7 0 V
8 0 V
7 0 V
8 0 V
7 0 V
8 0 V
7 0 V
8 0 V
7 0 V
8 0 V
7 0 V
8 0 V
8 0 V
7 0 V
8 0 V
7 0 V
8 0 V
7 0 V
8 0 V
7 0 V
8 0 V
7 0 V
8 0 V
7 0 V
8 0 V
7 0 V
8 0 V
7 0 V
8 0 V
7 0 V
8 0 V
7 0 V
8 0 V
8 0 V
7 0 V
8 0 V
7 0 V
8 0 V
7 0 V
8 0 V
7 0 V
stroke 2253 994 M
8 0 V
7 0 V
8 0 V
7 0 V
8 0 V
7 0 V
8 0 V
7 84 V
8 0 V
7 -84 V
8 0 V
8 0 V
7 0 V
8 0 V
7 0 V
8 0 V
7 0 V
8 82 V
7 0 V
8 -82 V
7 0 V
8 0 V
7 0 V
8 69 V
7 0 V
8 -69 V
7 0 V
8 0 V
7 0 V
8 0 V
7 0 V
8 0 V
8 0 V
7 0 V
8 0 V
7 0 V
8 0 V
7 0 V
8 0 V
7 0 V
8 0 V
7 0 V
8 0 V
7 0 V
8 0 V
7 0 V
8 0 V
7 0 V
8 0 V
7 0 V
8 0 V
8 0 V
7 0 V
8 0 V
7 0 V
8 0 V
7 0 V
8 0 V
7 0 V
8 0 V
7 0 V
8 0 V
7 0 V
8 0 V
7 0 V
8 0 V
7 0 V
8 0 V
7 0 V
8 0 V
7 0 V
8 0 V
8 0 V
7 0 V
8 0 V
7 0 V
8 0 V
7 0 V
8 0 V
7 0 V
8 0 V
7 0 V
8 0 V
7 0 V
8 0 V
7 0 V
8 0 V
7 0 V
8 0 V
7 0 V
8 0 V
8 59 V
7 0 V
8 -59 V
7 0 V
8 28 V
7 0 V
8 -28 V
7 0 V
8 0 V
7 0 V
8 0 V
7 0 V
8 0 V
stroke 3036 994 M
7 0 V
8 0 V
7 0 V
8 0 V
7 0 V
8 0 V
7 0 V
8 0 V
8 0 V
7 0 V
8 0 V
7 0 V
8 0 V
7 0 V
8 0 V
7 0 V
8 0 V
7 0 V
8 0 V
7 0 V
8 0 V
7 0 V
8 0 V
7 0 V
8 0 V
7 0 V
8 0 V
8 0 V
7 0 V
8 0 V
7 0 V
8 0 V
7 0 V
8 0 V
7 0 V
8 0 V
7 0 V
8 0 V
7 0 V
8 0 V
7 0 V
8 0 V
7 0 V
8 0 V
7 0 V
8 0 V
7 0 V
8 0 V
8 0 V
7 0 V
8 0 V
7 0 V
8 0 V
7 0 V
8 0 V
7 0 V
8 0 V
7 0 V
8 0 V
7 0 V
8 0 V
7 0 V
8 0 V
7 0 V
8 0 V
7 0 V
8 0 V
8 0 V
7 0 V
8 0 V
7 0 V
8 0 V
7 0 V
8 0 V
7 0 V
8 0 V
7 0 V
8 0 V
7 0 V
8 0 V
7 0 V
8 0 V
7 0 V
8 0 V
7 0 V
8 0 V
7 0 V
8 0 V
8 0 V
7 0 V
8 0 V
7 292 V
8 0 V
7 -292 V
8 0 V
7 0 V
8 0 V
7 0 V
8 0 V
7 0 V
8 0 V
7 0 V
8 0 V
7 307 V
stroke 3818 1301 M
8 0 V
7 -307 V
8 0 V
8 0 V
7 0 V
8 0 V
7 0 V
8 0 V
7 0 V
8 0 V
7 0 V
8 0 V
7 0 V
8 0 V
7 0 V
8 0 V
7 0 V
8 0 V
7 0 V
8 0 V
7 0 V
8 0 V
7 0 V
8 0 V
8 0 V
7 0 V
8 0 V
7 0 V
8 0 V
7 0 V
8 0 V
7 0 V
8 0 V
7 0 V
8 0 V
7 0 V
8 0 V
7 0 V
8 0 V
7 0 V
8 0 V
7 0 V
8 0 V
8 0 V
7 0 V
8 0 V
7 0 V
8 0 V
7 0 V
8 0 V
7 0 V
8 0 V
7 0 V
8 0 V
7 0 V
8 0 V
7 0 V
8 0 V
7 0 V
8 0 V
7 0 V
8 0 V
7 0 V
8 0 V
8 0 V
7 0 V
8 0 V
7 398 V
8 0 V
7 -398 V
8 0 V
7 0 V
8 0 V
7 0 V
8 0 V
7 0 V
8 0 V
7 0 V
8 0 V
7 0 V
8 0 V
7 0 V
8 0 V
8 1344 V
7 -1344 V
8 0 V
7 0 V
8 0 V
7 0 V
8 0 V
7 0 V
8 0 V
7 0 V
8 0 V
7 0 V
8 0 V
7 0 V
8 0 V
7 0 V
8 0 V
7 0 V
8 0 V
7 0 V
8 0 V
stroke 4601 994 M
8 0 V
7 0 V
8 0 V
7 0 V
8 0 V
7 0 V
8 0 V
7 86 V
8 0 V
7 -86 V
8 0 V
7 0 V
8 0 V
7 0 V
8 0 V
7 0 V
8 0 V
7 0 V
8 0 V
8 0 V
7 0 V
8 0 V
7 0 V
8 0 V
7 0 V
8 0 V
7 0 V
8 0 V
7 0 V
8 0 V
7 0 V
8 0 V
7 0 V
8 0 V
7 0 V
8 0 V
7 0 V
8 0 V
7 0 V
8 0 V
8 0 V
7 0 V
8 0 V
7 0 V
8 0 V
7 0 V
8 0 V
7 0 V
8 0 V
7 0 V
8 0 V
7 260 V
8 0 V
7 -260 V
8 0 V
7 0 V
8 0 V
7 0 V
8 0 V
8 0 V
7 0 V
8 0 V
7 0 V
8 0 V
7 0 V
8 151 V
7 0 V
8 139 V
7 0 V
8 -290 V
7 0 V
8 16 V
7 0 V
8 -16 V
7 0 V
8 0 V
7 0 V
8 0 V
7 0 V
8 0 V
8 0 V
7 0 V
8 0 V
7 0 V
8 0 V
7 0 V
8 0 V
7 0 V
8 0 V
7 0 V
8 0 V
7 0 V
8 0 V
7 0 V
8 0 V
7 0 V
8 0 V
7 0 V
8 0 V
8 0 V
7 0 V
8 30 V
7 0 V
8 -30 V
stroke 5384 994 M
7 0 V
8 0 V
7 0 V
8 0 V
7 0 V
8 0 V
7 0 V
8 0 V
7 0 V
8 0 V
7 0 V
8 0 V
7 0 V
8 297 V
7 0 V
8 -297 V
8 0 V
7 0 V
8 0 V
7 0 V
8 0 V
7 0 V
8 0 V
7 0 V
8 0 V
7 0 V
8 0 V
7 0 V
8 0 V
7 0 V
8 0 V
7 0 V
8 0 V
7 0 V
8 0 V
8 0 V
7 0 V
8 155 V
7 0 V
8 -155 V
7 0 V
8 0 V
7 0 V
8 0 V
7 0 V
8 0 V
7 0 V
8 0 V
7 0 V
8 214 V
7 0 V
8 -214 V
7 0 V
8 0 V
7 0 V
8 0 V
8 0 V
7 0 V
8 0 V
7 0 V
8 0 V
7 0 V
8 0 V
7 0 V
8 0 V
7 0 V
8 0 V
7 0 V
8 0 V
7 0 V
8 0 V
7 0 V
8 0 V
7 0 V
8 0 V
8 0 V
7 0 V
8 0 V
7 0 V
8 0 V
7 0 V
8 0 V
7 0 V
8 0 V
7 0 V
8 0 V
7 0 V
8 0 V
7 0 V
8 0 V
7 0 V
8 0 V
7 0 V
8 0 V
7 0 V
8 0 V
8 0 V
7 0 V
8 0 V
7 0 V
8 0 V
7 0 V
8 0 V
7 0 V
stroke 6166 994 M
8 0 V
7 0 V
8 0 V
7 0 V
8 0 V
7 0 V
8 0 V
7 0 V
8 0 V
7 0 V
8 0 V
8 326 V
7 0 V
8 -326 V
7 0 V
8 26 V
7 0 V
8 -26 V
7 0 V
8 0 V
7 0 V
8 0 V
7 0 V
8 0 V
7 0 V
8 0 V
7 0 V
8 0 V
7 0 V
8 0 V
7 0 V
8 0 V
8 0 V
7 0 V
8 0 V
7 0 V
8 0 V
7 0 V
8 0 V
7 0 V
8 0 V
7 0 V
8 0 V
7 0 V
8 0 V
7 0 V
8 0 V
7 0 V
8 0 V
7 0 V
8 0 V
8 0 V
7 0 V
8 0 V
7 0 V
8 461 V
7 0 V
8 -461 V
7 0 V
8 0 V
7 0 V
8 0 V
7 0 V
8 0 V
7 0 V
8 24 V
7 0 V
8 -24 V
7 0 V
8 0 V
7 0 V
8 0 V
8 0 V
7 0 V
8 0 V
7 0 V
8 0 V
7 0 V
8 0 V
7 0 V
8 0 V
7 0 V
8 0 V
7 95 V
8 0 V
7 -57 V
8 0 V
7 -38 V
8 0 V
7 127 V
8 0 V
8 -127 V
7 0 V
8 0 V
7 0 V
8 0 V
7 0 V
8 250 V
7 0 V
8 -250 V
7 0 V
8 0 V
7 0 V
8 294 V
stroke 6949 1288 M
7 0 V
8 -294 V
7 0 V
8 0 V
7 0 V
8 0 V
7 0 V
8 106 V
8 0 V
7 -106 V
8 0 V
7 0 V
8 0 V
7 0 V
8 0 V
7 0 V
8 0 V
7 0 V
8 0 V
7 0 V
8 0 V
7 0 V
8 0 V
7 0 V
8 0 V
7 0 V
8 0 V
8 0 V
7 0 V
8 0 V
7 0 V
8 242 V
7 0 V
8 -242 V
7 0 V
8 0 V
7 0 V
8 0 V
7 0 V
8 0 V
7 0 V
8 0 V
7 0 V
8 218 V
7 0 V
8 -218 V
7 0 V
8 0 V
8 0 V
7 0 V
8 0 V
7 0 V
8 0 V
7 0 V
8 0 V
7 0 V
8 0 V
7 0 V
8 0 V
7 0 V
8 0 V
7 0 V
8 0 V
7 68 V
8 0 V
7 -68 V
8 0 V
8 16 V
7 0 V
8 -16 V
7 0 V
8 0 V
7 0 V
8 0 V
7 0 V
8 0 V
7 0 V
8 0 V
7 0 V
8 0 V
7 0 V
8 22 V
7 0 V
8 -22 V
7 0 V
8 0 V
7 0 V
8 0 V
8 0 V
7 0 V
8 0 V
7 0 V
8 0 V
7 0 V
8 0 V
7 0 V
8 0 V
7 0 V
8 0 V
7 0 V
8 0 V
7 0 V
8 0 V
7 0 V
stroke 7731 994 M
8 0 V
7 0 V
8 0 V
8 0 V
7 0 V
8 0 V
7 0 V
8 0 V
7 0 V
8 324 V
7 0 V
8 -324 V
7 0 V
8 0 V
7 0 V
8 0 V
7 0 V
8 0 V
7 0 V
8 0 V
7 0 V
8 0 V
7 0 V
8 0 V
8 0 V
7 0 V
8 0 V
7 0 V
8 0 V
7 0 V
8 0 V
7 0 V
8 0 V
7 0 V
8 0 V
7 0 V
8 0 V
7 0 V
8 0 V
7 37 V
8 0 V
7 -37 V
8 0 V
8 0 V
7 0 V
8 0 V
7 0 V
8 193 V
7 0 V
8 -122 V
7 0 V
8 -71 V
7 0 V
8 26 V
7 0 V
8 -26 V
7 0 V
8 0 V
7 0 V
8 0 V
7 0 V
8 0 V
7 0 V
% End plot #2
stroke
1.000 UL
LTb
688 2921 N
688 512 L
7525 0 V
0 2409 V
-7525 0 V
Z stroke
1.000 UP
3.000 UL
LTb
1.00 1.00 1.00 C 688 1957 M
0 121 V
stroke
LTb
1.00 1.00 1.00 C 8213 1957 M
0 121 V
stroke
1.000 UL
LTb
613 1897 M
150 121 V
-150 0 R
150 120 V
8138 1897 M
150 121 V
-150 0 R
150 120 V
stroke
3.000 UL
LTb
1.00 1.00 1.00 C 4451 1957 M
0 121 V
stroke
1.000 UL
LTb
4375 1897 M
151 121 V
-151 0 R
151 120 V
stroke
grestore
end
showpage
%%Trailer
%%DocumentFonts: Symbol Helvetica
