plot "normal500Seeds.dat" u 1:($2)/5 w l
replot "Dist26DNA1000Seeds700.dat" u 1:2 w l
replot "Dist25DNA1000Seeds700.dat" u 1:2 w l
replot "Dist100DNA1000Seeds700.dat" u 1:2 w l
replot "Dist200DNA1000Seeds700.dat" u 1:2 w l
replot "Dist300DNA1000Seeds700.dat" u 1:2 w l
replot "Dist400DNA1000Seeds700.dat" u 1:2 w l
replot "Dist500DNA1000Seeds700.dat" u 1:2 w l
