plot "../../ManyProtein/Prot5/Prot5DNA1000Seeds200.dat" u 1:2 w l lw 3
replot "Dist25DNA1000Seeds200.dat" u 1:2 w l
replot "Dist50DNA1000Seeds200.dat" u 1:2 w l
replot "Dist100DNA1000Seeds200.dat" u 1:2 w l
replot "Dist200DNA1000Seeds200.dat" u 1:2 w l
replot "Dist300DNA1000Seeds200.dat" u 1:2 w l
replot "Dist400DNA1000Seeds200.dat" u 1:2 w l
replot "Dist498DNA1000Seeds200.dat" u 1:2 w l
