plot "Prot10DNA100Seeds500.dat" u 1:2  w l
replot "Prot10DNA200Seeds500.dat" u 1:2 w l
replot "Prot10DNA300Seeds500.dat" u 1:2 w l
replot "Prot10DNA500Seeds500.dat" u 1:2 w l
replot "Prot10DNA700Seeds500.dat" u 1:2 w l
replot "Prot10DNA900Seeds500.dat" u 1:2 w l
replot "Prot10DNA1000Seeds500.dat" u 1:2 w l