set title "Search time versus affinity for DNA of length 900 and 10 proteins"
set xlabel "Affinity"
set ylabel "Search time in MC sweeps"
plot "normals/DNA500Seeds500.dat" u 1:($2)/10 w l title "1 Protein/10 (500seeds)"
replot "Prot10DNA500Seeds500.dat" u 1:2:4 w errorbars title "10 Proteins (500 seeds)"
