set title "DNA length 1000, one protein"
set xlabel "Affinity"
set ylabel "Search time"
plot "../OneProt/Averages1000.dat" every ::1 u 1:2:4 with errorbars, "" every ::1 u 1:2  w l lw 4 title "Normal"
replot "Dist25/average25.dat" u 1:2:4 with errorbars, "" u 1:2 with lines title "Dist from target 25"
replot "Dist50/average50.dat" u 1:2:4 with errorbars, "" u 1:2 with lines title "Dist from target 50"
replot "Dist100/average100.dat" u 1:2:4 with errorbars, "" u 1:2 with lines title "Dist from target 100"
replot "Dist200/average200.dat" u 1:2:4 with errorbars, "" u 1:2 with lines title "Dist from target 200"
