0.0	2248275.86
1.0	1686584.28
2.0	1344903.28
3.0	1024678.02
4.0	576023.12
5.0	300671.3
6.0	313617.42
7.0	203827.78
8.0	87591.0
9.0	37336.48
10.0	26848.8
11.0	23500.04
12.0	15240.66
13.0	17195.58
14.0	14983.14
15.0	15058.6
16.0	15997.98
17.0	15997.98
18.0	15997.98
19.0	15997.98
20.0	15997.98
