set title "DNA length 1000, one protein"
set xlabel "Affinity"
set ylabel "Search time"
set key right bottom
plot "normal1000.dat" u 1:2 w l lw 3 title "normal"
replot "DNA1000Seeds500stDev3cutOffAff20AMSeed30.dat" u 1:2 w l title "with energy profile 30"
replot "DNA1000Seeds500stDev3cutOffAff20AMSeed20.dat" u 1:2 w l title "with energy profile 20"
replot "DNA1000Seeds500stDev3cutOffAff20AMSeed15.dat" u 1:2 w l title "with energy profile 15"
replot "DNA1000Seeds500stDev3cutOffAff20AMSeed25.dat" u 1:2 w l title "with energy profile 25"
replot "DNA1000Seeds500stDev3cutOffAff20AMSeed5.dat" u 1:2 w l title "with energy profile 5"
replot "DNA1000Seeds500stDev3cutOffAff20AMSeed2.dat" u 1:2 w l title "with energy profile 2"
replot "DNA1000Seeds500stDev3cutOffAff20AMSeed0.dat" u 1:2 w l title "with energy profile 0"
replot "DNA1000Seeds500stDev3cutOffAff20AMSeed10.dat" u 1:2 w l title "with energy profile 10"
replot "DNA1000Seeds500stDev3cutOffAff20AMSeed35.dat" u 1:2 w l title "with energy profile 35"
replot "DNA1000Seeds500stDev3cutOffAff20AMSeed40.dat" u 1:2 w l title "with energy profile 40"
replot "Averages1000.dat" every ::1 u 1:2:4 with errorbars, "" every ::1 u 1:2 w l lw 3 title "averages"
