set title "Search time versus affinity for DNA of length 1000"
set xlabel "Affinity"
set ylabel "Search time in MC sweeps"
set key left top
plot 'Dist25Seeds500.dat' u 1:2 w l title "Distance 25 from target"
replot'Dist100Seeds500.dat' u 1:2 w l title "Distance 100 from target"
replot 'Dist200Seeds500.dat' u 1:2 w l title "Distance 200 from target"
replot 'Dist300seeds500.dat' u 1:2 w l title "Distance 300 from target"
replot 'Dist400Seeds500.dat' u 1:2 w l title "Distance 400 from target"
replot 'Dist500Seeds500.dat' u 1:2 w l title "Distance 500 from target"
replot '500SeedsDNA1000.dat' u 1:2 w l lw 3 title "Random position"
