plot "Prot10DNA100Seeds200.dat" u 1:2  w l
replot "Prot10DNA200Seeds200.dat" u 1:2 w l
replot "Prot10DNA300Seeds200.dat" u 1:2 w l
replot "Prot10DNA500Seeds200.dat" u 1:2 w l
replot "Prot10DNA700Seeds200.dat" u 1:2 w l
replot "Prot10DNA900Seeds200.dat" u 1:2 w l
replot "Prot10DNA1000Seeds200.dat" u 1:2 w l
