set title "Search time versus affinity for DNA of length 900 and 10 proteins"
set xlabel "Affinity"
set ylabel "Search time in MC sweeps"
plot "../normals/DNA900Seeds500.dat" u 1:($2)/10 w l title "1 Protein/10 (500seeds)"
replot "Prot10DNA900Seeds200.dat" u 1:2 w l title "10 Proteins (200 seeds)"
