0	2.952298136110391
1	0.666524979189103
2	4.095184714571035
3	4.095184714571035
4	4.095184714571035
5	2.952298136110391
6	0.666524979189103
7	4.095184714571035
8	4.095184714571035
9	5.23807129303168
10	2.952298136110391
11	1.8094115576497471
12	2.952298136110391
13	4.095184714571035
14	5.23807129303168
15	2.952298136110391
16	2.952298136110391
17	4.095184714571035
18	2.952298136110391
19	2.952298136110391
20	5.23807129303168
21	2.952298136110391
22	1.8094115576497471
23	6.380957871492324
24	4.095184714571035
25	4.095184714571035
26	2.952298136110391
27	6.380957871492324
28	0.666524979189103
29	-0.4763615992715411
30	1.8094115576497471
31	2.952298136110391
32	1.8094115576497471
33	1.8094115576497471
34	4.095184714571035
35	8.666731028413611
36	1.8094115576497471
37	2.952298136110391
38	2.952298136110391
39	2.952298136110391
40	0.666524979189103
41	0.666524979189103
42	2.952298136110391
43	1.8094115576497471
44	1.8094115576497471
45	0.666524979189103
46	0.666524979189103
47	0.666524979189103
48	2.952298136110391
49	8.666731028413611
50	4.095184714571035
51	4.095184714571035
52	6.380957871492324
53	-1.6192481777321852
54	-0.4763615992715411
55	-1.6192481777321852
56	-1.6192481777321852
57	4.095184714571035
58	-0.4763615992715411
59	2.952298136110391
60	2.952298136110391
61	-0.4763615992715411
62	6.380957871492324
63	2.952298136110391
64	-1.6192481777321852
65	0.666524979189103
66	4.095184714571035
67	0.666524979189103
68	1.8094115576497471
69	-1.6192481777321852
70	1.8094115576497471
71	-0.4763615992715411
72	2.952298136110391
73	5.23807129303168
74	1.8094115576497471
75	1.8094115576497471
76	0.666524979189103
77	-1.6192481777321852
78	0.666524979189103
79	-0.4763615992715411
80	4.095184714571035
81	4.095184714571035
82	1.8094115576497471
83	-0.4763615992715411
84	-0.4763615992715411
85	1.8094115576497471
86	5.23807129303168
87	2.952298136110391
88	2.952298136110391
89	0.666524979189103
90	1.8094115576497471
91	0.666524979189103
92	1.8094115576497471
93	-0.4763615992715411
94	0.666524979189103
95	1.8094115576497471
96	0.666524979189103
97	0.666524979189103
98	-1.6192481777321852
99	1.8094115576497471
100	2.952298136110391
101	1.8094115576497471
102	0.666524979189103
103	0.666524979189103
104	4.095184714571035
105	2.952298136110391
106	2.952298136110391
107	1.8094115576497471
108	1.8094115576497471
109	4.095184714571035
110	2.952298136110391
111	2.952298136110391
112	1.8094115576497471
113	2.952298136110391
114	0.666524979189103
115	1.8094115576497471
116	1.8094115576497471
117	1.8094115576497471
118	1.8094115576497471
119	-0.4763615992715411
120	0.666524979189103
121	0.666524979189103
122	1.8094115576497471
123	2.952298136110391
124	6.380957871492324
125	-0.4763615992715411
126	0.666524979189103
127	5.23807129303168
128	1.8094115576497471
129	2.952298136110391
130	4.095184714571035
131	2.952298136110391
132	0.666524979189103
133	0.666524979189103
134	0.666524979189103
135	1.8094115576497471
136	2.952298136110391
137	4.095184714571035
138	1.8094115576497471
139	2.952298136110391
140	2.952298136110391
141	1.8094115576497471
142	2.952298136110391
143	-0.4763615992715411
144	2.952298136110391
145	2.952298136110391
146	0.666524979189103
147	2.952298136110391
148	-0.4763615992715411
149	2.952298136110391
150	-0.4763615992715411
151	2.952298136110391
152	5.23807129303168
153	1.8094115576497471
154	0.666524979189103
155	5.23807129303168
156	0.666524979189103
157	4.095184714571035
158	2.952298136110391
159	8.666731028413611
160	1.8094115576497471
161	4.095184714571035
162	2.952298136110391
163	-0.4763615992715411
164	5.23807129303168
165	2.952298136110391
166	2.952298136110391
167	7.523844449952968
168	2.952298136110391
169	2.952298136110391
170	1.8094115576497471
171	5.23807129303168
172	0.666524979189103
173	5.23807129303168
174	0.666524979189103
175	2.952298136110391
176	1.8094115576497471
177	0.666524979189103
178	0.666524979189103
179	2.952298136110391
180	6.380957871492324
181	2.952298136110391
182	-0.4763615992715411
183	0.666524979189103
184	0.666524979189103
185	1.8094115576497471
186	4.095184714571035
187	6.380957871492324
188	2.952298136110391
189	0.666524979189103
190	6.380957871492324
191	2.952298136110391
192	1.8094115576497471
193	-0.4763615992715411
194	1.8094115576497471
195	4.095184714571035
196	1.8094115576497471
197	1.8094115576497471
198	-0.4763615992715411
199	1.8094115576497471
200	-0.4763615992715411
201	0.666524979189103
202	1.8094115576497471
203	2.952298136110391
204	5.23807129303168
205	0.666524979189103
206	5.23807129303168
207	0.666524979189103
208	0.666524979189103
209	-0.4763615992715411
210	4.095184714571035
211	1.8094115576497471
212	0.666524979189103
213	0.666524979189103
214	5.23807129303168
215	-0.4763615992715411
216	2.952298136110391
217	6.380957871492324
218	0.666524979189103
219	2.952298136110391
220	7.523844449952968
221	0.666524979189103
222	4.095184714571035
223	1.8094115576497471
224	1.8094115576497471
225	1.8094115576497471
226	2.952298136110391
227	1.8094115576497471
228	2.952298136110391
229	-0.4763615992715411
230	8.666731028413611
231	1.8094115576497471
232	2.952298136110391
233	1.8094115576497471
234	5.23807129303168
235	1.8094115576497471
236	-1.6192481777321852
237	2.952298136110391
238	2.952298136110391
239	2.952298136110391
240	1.8094115576497471
241	4.095184714571035
242	4.095184714571035
243	6.380957871492324
244	-1.6192481777321852
245	0.666524979189103
246	5.23807129303168
247	0.666524979189103
248	2.952298136110391
249	2.952298136110391
250	4.095184714571035
251	1.8094115576497471
252	0.666524979189103
253	-0.4763615992715411
254	1.8094115576497471
255	2.952298136110391
256	1.8094115576497471
257	4.095184714571035
258	5.23807129303168
259	1.8094115576497471
260	4.095184714571035
261	2.952298136110391
262	1.8094115576497471
263	0.666524979189103
264	1.8094115576497471
265	-0.4763615992715411
266	1.8094115576497471
267	1.8094115576497471
268	1.8094115576497471
269	6.380957871492324
270	0.666524979189103
271	-1.6192481777321852
272	5.23807129303168
273	2.952298136110391
274	1.8094115576497471
275	0.666524979189103
276	2.952298136110391
277	2.952298136110391
278	2.952298136110391
279	6.380957871492324
280	-0.4763615992715411
281	0.666524979189103
282	2.952298136110391
283	4.095184714571035
284	2.952298136110391
285	5.23807129303168
286	0.666524979189103
287	2.952298136110391
288	1.8094115576497471
289	1.8094115576497471
290	2.952298136110391
291	1.8094115576497471
292	4.095184714571035
293	-1.6192481777321852
294	7.523844449952968
295	-0.4763615992715411
296	2.952298136110391
297	5.23807129303168
298	1.8094115576497471
299	-0.4763615992715411
300	4.095184714571035
301	1.8094115576497471
302	1.8094115576497471
303	1.8094115576497471
304	5.23807129303168
305	2.952298136110391
306	2.952298136110391
307	4.095184714571035
308	0.666524979189103
309	0.666524979189103
310	1.8094115576497471
311	4.095184714571035
312	4.095184714571035
313	2.952298136110391
314	5.23807129303168
315	1.8094115576497471
316	-0.4763615992715411
317	0.666524979189103
318	0.666524979189103
319	0.666524979189103
320	1.8094115576497471
321	1.8094115576497471
322	5.23807129303168
323	1.8094115576497471
324	2.952298136110391
325	4.095184714571035
326	4.095184714571035
327	1.8094115576497471
328	-0.4763615992715411
329	2.952298136110391
330	1.8094115576497471
331	0.666524979189103
332	1.8094115576497471
333	5.23807129303168
334	2.952298136110391
335	4.095184714571035
336	2.952298136110391
337	0.666524979189103
338	0.666524979189103
339	4.095184714571035
340	2.952298136110391
341	2.952298136110391
342	2.952298136110391
343	1.8094115576497471
344	0.666524979189103
345	-1.6192481777321852
346	5.23807129303168
347	7.523844449952968
348	6.380957871492324
349	2.952298136110391
350	4.095184714571035
351	2.952298136110391
352	2.952298136110391
353	-0.4763615992715411
354	0.666524979189103
355	0.666524979189103
356	1.8094115576497471
357	1.8094115576497471
358	0.666524979189103
359	0.666524979189103
360	6.380957871492324
361	-0.4763615992715411
362	2.952298136110391
363	4.095184714571035
364	6.380957871492324
365	6.380957871492324
366	1.8094115576497471
367	-0.4763615992715411
368	5.23807129303168
369	2.952298136110391
370	2.952298136110391
371	-0.4763615992715411
372	2.952298136110391
373	-0.4763615992715411
374	2.952298136110391
375	2.952298136110391
376	5.23807129303168
377	1.8094115576497471
378	1.8094115576497471
379	-0.4763615992715411
380	4.095184714571035
381	4.095184714571035
382	4.095184714571035
383	2.952298136110391
384	4.095184714571035
385	2.952298136110391
386	0.666524979189103
387	-0.4763615992715411
388	0.666524979189103
389	1.8094115576497471
390	0.666524979189103
391	0.666524979189103
392	0.666524979189103
393	1.8094115576497471
394	1.8094115576497471
395	2.952298136110391
396	1.8094115576497471
397	2.952298136110391
398	4.095184714571035
399	1.8094115576497471
400	2.952298136110391
401	1.8094115576497471
402	2.952298136110391
403	1.8094115576497471
404	6.380957871492324
405	5.23807129303168
406	5.23807129303168
407	0.666524979189103
408	2.952298136110391
409	1.8094115576497471
410	2.952298136110391
411	2.952298136110391
412	2.952298136110391
413	7.523844449952968
414	2.952298136110391
415	0.666524979189103
416	5.23807129303168
417	2.952298136110391
418	0.666524979189103
419	0.666524979189103
420	1.8094115576497471
421	1.8094115576497471
422	6.380957871492324
423	2.952298136110391
424	0.666524979189103
425	1.8094115576497471
426	2.952298136110391
427	5.23807129303168
428	6.380957871492324
429	0.666524979189103
430	7.523844449952968
431	0.666524979189103
432	4.095184714571035
433	1.8094115576497471
434	4.095184714571035
435	5.23807129303168
436	1.8094115576497471
437	1.8094115576497471
438	2.952298136110391
439	2.952298136110391
440	0.666524979189103
441	0.666524979189103
442	1.8094115576497471
443	0.666524979189103
444	4.095184714571035
445	2.952298136110391
446	1.8094115576497471
447	0.666524979189103
448	6.380957871492324
449	0.666524979189103
450	6.380957871492324
451	2.952298136110391
452	2.952298136110391
453	4.095184714571035
454	1.8094115576497471
455	-0.4763615992715411
456	2.952298136110391
457	-1.6192481777321852
458	2.952298136110391
459	0.666524979189103
460	5.23807129303168
461	0.666524979189103
462	1.8094115576497471
463	5.23807129303168
464	1.8094115576497471
465	4.095184714571035
466	-0.4763615992715411
467	-1.6192481777321852
468	2.952298136110391
469	1.8094115576497471
470	0.666524979189103
471	0.666524979189103
472	2.952298136110391
473	4.095184714571035
474	4.095184714571035
475	0.666524979189103
476	1.8094115576497471
477	4.095184714571035
478	6.380957871492324
479	5.23807129303168
480	5.23807129303168
481	5.23807129303168
482	5.23807129303168
483	2.952298136110391
484	4.095184714571035
485	7.523844449952968
486	0.666524979189103
487	1.8094115576497471
488	2.952298136110391
489	2.952298136110391
490	8.666731028413611
491	5.23807129303168
492	1.8094115576497471
493	5.23807129303168
494	1.8094115576497471
495	0.666524979189103
496	-0.4763615992715411
497	1.8094115576497471
498	1.8094115576497471
499	2.952298136110391
500	17.809823656098764
501	0.666524979189103
502	1.8094115576497471
503	1.8094115576497471
504	-0.4763615992715411
505	1.8094115576497471
506	-0.4763615992715411
507	0.666524979189103
508	2.952298136110391
509	5.23807129303168
510	0.666524979189103
511	5.23807129303168
512	2.952298136110391
513	4.095184714571035
514	-0.4763615992715411
515	2.952298136110391
516	0.666524979189103
517	0.666524979189103
518	2.952298136110391
519	4.095184714571035
520	1.8094115576497471
521	6.380957871492324
522	4.095184714571035
523	0.666524979189103
524	0.666524979189103
525	5.23807129303168
526	2.952298136110391
527	2.952298136110391
528	5.23807129303168
529	6.380957871492324
530	1.8094115576497471
531	2.952298136110391
532	0.666524979189103
533	2.952298136110391
534	5.23807129303168
535	2.952298136110391
536	2.952298136110391
537	1.8094115576497471
538	0.666524979189103
539	-1.6192481777321852
540	1.8094115576497471
541	5.23807129303168
542	0.666524979189103
543	-1.6192481777321852
544	1.8094115576497471
545	-0.4763615992715411
546	0.666524979189103
547	0.666524979189103
548	2.952298136110391
549	4.095184714571035
550	4.095184714571035
551	5.23807129303168
552	1.8094115576497471
553	-1.6192481777321852
554	-0.4763615992715411
555	0.666524979189103
556	6.380957871492324
557	1.8094115576497471
558	0.666524979189103
559	-0.4763615992715411
560	-0.4763615992715411
561	1.8094115576497471
562	0.666524979189103
563	0.666524979189103
564	-0.4763615992715411
565	0.666524979189103
566	1.8094115576497471
567	2.952298136110391
568	-1.6192481777321852
569	2.952298136110391
570	2.952298136110391
571	5.23807129303168
572	2.952298136110391
573	0.666524979189103
574	7.523844449952968
575	0.666524979189103
576	1.8094115576497471
577	1.8094115576497471
578	2.952298136110391
579	1.8094115576497471
580	1.8094115576497471
581	2.952298136110391
582	5.23807129303168
583	0.666524979189103
584	2.952298136110391
585	1.8094115576497471
586	0.666524979189103
587	0.666524979189103
588	5.23807129303168
589	5.23807129303168
590	2.952298136110391
591	-0.4763615992715411
592	5.23807129303168
593	1.8094115576497471
594	6.380957871492324
595	5.23807129303168
596	1.8094115576497471
597	4.095184714571035
598	4.095184714571035
599	1.8094115576497471
600	4.095184714571035
601	4.095184714571035
602	0.666524979189103
603	2.952298136110391
604	1.8094115576497471
605	-1.6192481777321852
606	6.380957871492324
607	1.8094115576497471
608	2.952298136110391
609	-1.6192481777321852
610	2.952298136110391
611	4.095184714571035
612	2.952298136110391
613	2.952298136110391
614	0.666524979189103
615	1.8094115576497471
616	4.095184714571035
617	1.8094115576497471
618	5.23807129303168
619	2.952298136110391
620	0.666524979189103
621	-1.6192481777321852
622	-1.6192481777321852
623	-0.4763615992715411
624	1.8094115576497471
625	4.095184714571035
626	2.952298136110391
627	-0.4763615992715411
628	-0.4763615992715411
629	1.8094115576497471
630	-0.4763615992715411
631	0.666524979189103
632	1.8094115576497471
633	5.23807129303168
634	5.23807129303168
635	2.952298136110391
636	6.380957871492324
637	0.666524979189103
638	1.8094115576497471
639	-0.4763615992715411
640	1.8094115576497471
641	1.8094115576497471
642	2.952298136110391
643	5.23807129303168
644	1.8094115576497471
645	2.952298136110391
646	0.666524979189103
647	2.952298136110391
648	4.095184714571035
649	2.952298136110391
650	1.8094115576497471
651	2.952298136110391
652	1.8094115576497471
653	1.8094115576497471
654	0.666524979189103
655	4.095184714571035
656	2.952298136110391
657	0.666524979189103
658	2.952298136110391
659	2.952298136110391
660	0.666524979189103
661	0.666524979189103
662	5.23807129303168
663	4.095184714571035
664	1.8094115576497471
665	-0.4763615992715411
666	4.095184714571035
667	-0.4763615992715411
668	-0.4763615992715411
669	1.8094115576497471
670	-0.4763615992715411
671	0.666524979189103
672	4.095184714571035
673	5.23807129303168
674	1.8094115576497471
675	1.8094115576497471
676	0.666524979189103
677	0.666524979189103
678	4.095184714571035
679	6.380957871492324
680	-1.6192481777321852
681	-1.6192481777321852
682	2.952298136110391
683	8.666731028413611
684	0.666524979189103
685	-0.4763615992715411
686	1.8094115576497471
687	0.666524979189103
688	4.095184714571035
689	1.8094115576497471
690	5.23807129303168
691	1.8094115576497471
692	0.666524979189103
693	4.095184714571035
694	4.095184714571035
695	2.952298136110391
696	2.952298136110391
697	0.666524979189103
698	2.952298136110391
699	1.8094115576497471
700	0.666524979189103
701	0.666524979189103
702	1.8094115576497471
703	4.095184714571035
704	2.952298136110391
705	1.8094115576497471
706	2.952298136110391
707	2.952298136110391
708	8.666731028413611
709	2.952298136110391
710	4.095184714571035
711	5.23807129303168
712	0.666524979189103
713	1.8094115576497471
714	4.095184714571035
715	1.8094115576497471
716	4.095184714571035
717	0.666524979189103
718	-0.4763615992715411
719	6.380957871492324
720	2.952298136110391
721	2.952298136110391
722	4.095184714571035
723	4.095184714571035
724	4.095184714571035
725	4.095184714571035
726	4.095184714571035
727	0.666524979189103
728	0.666524979189103
729	2.952298136110391
730	2.952298136110391
731	1.8094115576497471
732	2.952298136110391
733	0.666524979189103
734	1.8094115576497471
735	2.952298136110391
736	0.666524979189103
737	5.23807129303168
738	-1.6192481777321852
739	5.23807129303168
740	4.095184714571035
741	2.952298136110391
742	7.523844449952968
743	2.952298136110391
744	2.952298136110391
745	4.095184714571035
746	1.8094115576497471
747	1.8094115576497471
748	1.8094115576497471
749	5.23807129303168
750	1.8094115576497471
751	2.952298136110391
752	0.666524979189103
753	1.8094115576497471
754	2.952298136110391
755	1.8094115576497471
756	7.523844449952968
757	2.952298136110391
758	1.8094115576497471
759	6.380957871492324
760	2.952298136110391
761	2.952298136110391
762	4.095184714571035
763	0.666524979189103
764	-0.4763615992715411
765	-1.6192481777321852
766	-0.4763615992715411
767	-0.4763615992715411
768	0.666524979189103
769	5.23807129303168
770	6.380957871492324
771	4.095184714571035
772	0.666524979189103
773	4.095184714571035
774	4.095184714571035
775	-0.4763615992715411
776	-0.4763615992715411
777	7.523844449952968
778	5.23807129303168
779	5.23807129303168
780	1.8094115576497471
781	0.666524979189103
782	2.952298136110391
783	5.23807129303168
784	1.8094115576497471
785	2.952298136110391
786	0.666524979189103
787	1.8094115576497471
788	2.952298136110391
789	1.8094115576497471
790	0.666524979189103
791	1.8094115576497471
792	-0.4763615992715411
793	1.8094115576497471
794	0.666524979189103
795	2.952298136110391
796	1.8094115576497471
797	0.666524979189103
798	-0.4763615992715411
799	4.095184714571035
800	1.8094115576497471
801	0.666524979189103
802	-1.6192481777321852
803	1.8094115576497471
804	-0.4763615992715411
805	2.952298136110391
806	2.952298136110391
807	2.952298136110391
808	0.666524979189103
809	4.095184714571035
810	4.095184714571035
811	4.095184714571035
812	1.8094115576497471
813	-1.6192481777321852
814	2.952298136110391
815	0.666524979189103
816	5.23807129303168
817	5.23807129303168
818	1.8094115576497471
819	5.23807129303168
820	-1.6192481777321852
821	5.23807129303168
822	2.952298136110391
823	-1.6192481777321852
824	4.095184714571035
825	2.952298136110391
826	0.666524979189103
827	1.8094115576497471
828	5.23807129303168
829	5.23807129303168
830	-0.4763615992715411
831	1.8094115576497471
832	4.095184714571035
833	1.8094115576497471
834	2.952298136110391
835	6.380957871492324
836	1.8094115576497471
837	4.095184714571035
838	0.666524979189103
839	4.095184714571035
840	-0.4763615992715411
841	-0.4763615992715411
842	1.8094115576497471
843	1.8094115576497471
844	1.8094115576497471
845	4.095184714571035
846	-1.6192481777321852
847	-1.6192481777321852
848	0.666524979189103
849	2.952298136110391
850	5.23807129303168
851	4.095184714571035
852	4.095184714571035
853	2.952298136110391
854	7.523844449952968
855	-0.4763615992715411
856	2.952298136110391
857	5.23807129303168
858	1.8094115576497471
859	5.23807129303168
860	5.23807129303168
861	2.952298136110391
862	-0.4763615992715411
863	1.8094115576497471
864	-0.4763615992715411
865	2.952298136110391
866	0.666524979189103
867	1.8094115576497471
868	5.23807129303168
869	4.095184714571035
870	1.8094115576497471
871	1.8094115576497471
872	-1.6192481777321852
873	0.666524979189103
874	2.952298136110391
875	0.666524979189103
876	5.23807129303168
877	0.666524979189103
878	-0.4763615992715411
879	-0.4763615992715411
880	5.23807129303168
881	4.095184714571035
882	5.23807129303168
883	5.23807129303168
884	-1.6192481777321852
885	6.380957871492324
886	-1.6192481777321852
887	0.666524979189103
888	-1.6192481777321852
889	0.666524979189103
890	1.8094115576497471
891	0.666524979189103
892	5.23807129303168
893	0.666524979189103
894	2.952298136110391
895	1.8094115576497471
896	4.095184714571035
897	4.095184714571035
898	4.095184714571035
899	7.523844449952968
900	9.809617606874257
901	7.523844449952968
902	4.095184714571035
903	0.666524979189103
904	2.952298136110391
905	6.380957871492324
906	5.23807129303168
907	-0.4763615992715411
908	2.952298136110391
909	4.095184714571035
910	0.666524979189103
911	2.952298136110391
912	2.952298136110391
913	2.952298136110391
914	2.952298136110391
915	4.095184714571035
916	4.095184714571035
917	0.666524979189103
918	0.666524979189103
919	0.666524979189103
920	1.8094115576497471
921	1.8094115576497471
922	2.952298136110391
923	5.23807129303168
924	6.380957871492324
925	2.952298136110391
926	0.666524979189103
927	-0.4763615992715411
928	1.8094115576497471
929	0.666524979189103
930	2.952298136110391
931	1.8094115576497471
932	2.952298136110391
933	4.095184714571035
934	0.666524979189103
935	2.952298136110391
936	7.523844449952968
937	0.666524979189103
938	2.952298136110391
939	4.095184714571035
940	4.095184714571035
941	1.8094115576497471
942	-0.4763615992715411
943	2.952298136110391
944	1.8094115576497471
945	4.095184714571035
946	0.666524979189103
947	2.952298136110391
948	0.666524979189103
949	0.666524979189103
950	2.952298136110391
951	4.095184714571035
952	4.095184714571035
953	-0.4763615992715411
954	1.8094115576497471
955	0.666524979189103
956	1.8094115576497471
957	4.095184714571035
958	2.952298136110391
959	0.666524979189103
960	2.952298136110391
961	6.380957871492324
962	1.8094115576497471
963	2.952298136110391
964	0.666524979189103
965	6.380957871492324
966	-0.4763615992715411
967	-0.4763615992715411
968	4.095184714571035
969	2.952298136110391
970	1.8094115576497471
971	2.952298136110391
972	6.380957871492324
973	4.095184714571035
974	2.952298136110391
975	0.666524979189103
976	4.095184714571035
977	2.952298136110391
978	0.666524979189103
979	-1.6192481777321852
980	2.952298136110391
981	1.8094115576497471
982	2.952298136110391
983	2.952298136110391
984	0.666524979189103
985	0.666524979189103
986	-0.4763615992715411
987	2.952298136110391
988	6.380957871492324
989	-0.4763615992715411
990	2.952298136110391
991	5.23807129303168
992	2.952298136110391
993	-0.4763615992715411
994	6.380957871492324
995	-1.6192481777321852
996	4.095184714571035
997	6.380957871492324
998	4.095184714571035
999	0.666524979189103
